%!PS-Adobe-3.0 EPSF-3.0 
%%BoundingBox: 0 0 401 231
%%Pages: 0
%%Creator: LibreOffice 5.1
%%Title: none
%%CreationDate: none
%%LanguageLevel: 2
%%EndComments
%%BeginProlog
%%BeginResource: procset SDRes-Prolog 1.0 0
/b4_inc_state save def
/dict_count countdictstack def
/op_count count 1 sub def
userdict begin
0 setgray 0 setlinecap 1 setlinewidth 0 setlinejoin 10 setmiterlimit[] 0 setdash newpath
/languagelevel where {pop languagelevel 1 ne {false setstrokeadjust false setoverprint} if} if
/bdef {bind def} bind def
/c {setrgbcolor} bdef
/l {neg lineto} bdef
/rl {neg rlineto} bdef
/lc {setlinecap} bdef
/lj {setlinejoin} bdef
/lw {setlinewidth} bdef
/ml {setmiterlimit} bdef
/ld {setdash} bdef
/m {neg moveto} bdef
/ct {6 2 roll neg 6 2 roll neg 6 2 roll neg curveto} bdef
/r {rotate} bdef
/t {neg translate} bdef
/s {scale} bdef
/sw {show} bdef
/gs {gsave} bdef
/gr {grestore} bdef
/f {findfont dup length dict begin
{1 index /FID ne {def} {pop pop} ifelse} forall /Encoding ISOLatin1Encoding def
currentdict end /NFont exch definefont pop /NFont findfont} bdef
/p {closepath} bdef
/sf {scalefont setfont} bdef
/ef {eofill}bdef
/pc {closepath stroke}bdef
/ps {stroke}bdef
/pum {matrix currentmatrix}bdef
/pom {setmatrix}bdef
/bs {/aString exch def /nXOfs exch def /nWidth exch def currentpoint nXOfs 0 rmoveto pum nWidth aString stringwidth pop div 1 scale aString show pom moveto} bdef
%%EndResource
%%EndProlog
%%BeginSetup
%%EndSetup
%%Page: 1 1
%%BeginPageSetup
%%EndPageSetup
pum
0.02834 0.02834 s 
0 -8149 t
/tm matrix currentmatrix def
tm setmatrix
-7594 -3338 t 
1 1 s 
1.000 1.000 1.000 c 14668 11486 m  7594 11486 l  7594 3338 l  21741 3338 l 
21741 11486 l  14668 11486 l  p ef
0 lw 1 lj 0.703 0.703 0.703 c 16011 9276 m  10563 9276 l  10563 3726 l 
21459 3726 l  21459 9276 l  16011 9276 l  pc
21458 9275 m  10563 9275 l  ps
21458 7887 m  10563 7887 l  ps
21458 6500 m  10563 6500 l  ps
21458 5112 m  10563 5112 l  ps
21458 3725 m  10563 3725 l  ps
10563 9425 m  10563 9275 l  ps
10563 9425 m  10563 9275 l  ps
12742 9425 m  12742 9275 l  ps
12742 9425 m  12742 9275 l  ps
14920 9425 m  14920 9275 l  ps
14920 9425 m  14920 9275 l  ps
17100 9425 m  17100 9275 l  ps
17100 9425 m  17100 9275 l  ps
19279 9425 m  19279 9275 l  ps
19279 9425 m  19279 9275 l  ps
21458 9425 m  21458 9275 l  ps
21458 9425 m  21458 9275 l  ps
10563 9275 m  21458 9275 l  ps
10413 9275 m  10563 9275 l  ps
10413 9275 m  10563 9275 l  ps
10413 7887 m  10563 7887 l  ps
10413 7887 m  10563 7887 l  ps
10413 6500 m  10563 6500 l  ps
10413 6500 m  10563 6500 l  ps
10413 5112 m  10563 5112 l  ps
10413 5112 m  10563 5112 l  ps
10413 3725 m  10563 3725 l  ps
10413 3725 m  10563 3725 l  ps
10563 9275 m  10563 3725 l  ps
0.152 0.167 0.195 c 19824 9275 m  20914 9275 l  20914 9082 l  19824 9082 l 
19824 9275 l  p ef
17645 9275 m  18734 9275 l  18734 4197 l  17645 4197 l  17645 9275 l  p ef
15465 9275 m  16555 9275 l  16555 7346 l  15465 7346 l  15465 9275 l  p ef
13287 9275 m  14376 9275 l  14376 9130 l  13287 9130 l  13287 9275 l  p ef
11107 9275 m  12197 9275 l  12197 9250 l  11107 9250 l  11107 9275 l  p ef
pum
10884 9895 t
0.003 0.003 0.003 c 217 -113 m  217 -35 190 4 135 4 ct 118 4 104 1 93 -5 ct 82 -11 73 -21 66 -35 ct 
65 -35 l  65 -31 65 -27 65 -24 ct 65 -20 65 -16 64 -13 ct 64 -9 64 -6 64 -4 ct 
64 -2 63 -1 63 -1 ct 27 -1 l  27 -2 28 -4 28 -7 ct 28 -10 28 -13 28 -17 ct 28 -22 28 -26 28 -31 ct 
28 -36 29 -41 29 -47 ct 29 -307 l  66 -307 l  66 -220 l  66 -215 66 -211 66 -208 ct 
66 -204 65 -201 65 -198 ct 65 -194 65 -191 65 -188 ct 66 -188 l  73 -202 82 -212 93 -219 ct 
104 -225 118 -228 135 -228 ct 164 -228 184 -218 198 -199 ct 211 -180 217 -152 217 -113 ct 
p
178 -112 m  178 -127 177 -140 176 -151 ct 174 -163 171 -172 166 -179 ct 162 -186 157 -191 150 -194 ct 
143 -198 135 -199 126 -199 ct 116 -199 107 -198 100 -194 ct 92 -191 86 -186 81 -179 ct 
76 -172 72 -163 70 -151 ct 67 -140 66 -126 66 -110 ct 66 -94 67 -80 70 -69 ct 72 -58 76 -49 81 -43 ct 
86 -36 92 -31 100 -28 ct 107 -25 116 -24 125 -24 ct 134 -24 142 -25 149 -28 ct 
156 -31 161 -37 165 -44 ct 170 -51 173 -60 175 -71 ct 177 -82 178 -96 178 -112 ct 
p ef
266 -271 m  266 -307 l  303 -307 l  303 -271 l  266 -271 l  p
266 0 m  266 -224 l  303 -224 l  303 0 l  266 0 l  p ef
540 -62 m  540 -51 538 -42 534 -34 ct 530 -26 524 -19 516 -13 ct 509 -8 499 -3 488 0 ct 
477 3 464 4 450 4 ct 437 4 425 3 415 1 ct 404 -1 395 -4 387 -9 ct 379 -13 373 -19 367 -26 ct 
362 -33 358 -42 356 -53 ct 389 -59 l  392 -47 398 -38 408 -33 ct 418 -27 432 -24 450 -24 ct 
458 -24 465 -25 472 -26 ct 478 -27 484 -29 489 -32 ct 494 -34 497 -38 500 -42 ct 
503 -47 504 -52 504 -59 ct 504 -66 502 -71 499 -76 ct 496 -80 492 -84 486 -87 ct 
480 -89 474 -92 466 -94 ct 458 -96 449 -99 439 -101 ct 430 -104 421 -106 412 -109 ct 
404 -112 396 -116 389 -120 ct 381 -125 376 -131 371 -138 ct 367 -145 365 -154 365 -165 ct 
365 -185 372 -200 386 -211 ct 401 -222 422 -227 450 -227 ct 475 -227 494 -223 509 -214 ct 
523 -205 532 -192 536 -172 ct 503 -168 l  502 -174 499 -179 496 -183 ct 493 -187 489 -190 484 -192 ct 
479 -195 474 -196 468 -197 ct 462 -198 456 -199 450 -199 ct 433 -199 421 -196 413 -191 ct 
405 -186 401 -179 401 -168 ct 401 -162 402 -157 405 -153 ct 408 -149 412 -146 418 -143 ct 
423 -141 429 -138 437 -136 ct 444 -134 452 -132 461 -130 ct 467 -129 473 -127 479 -125 ct 
486 -123 492 -121 498 -119 ct 503 -117 509 -114 514 -111 ct 519 -107 524 -103 528 -99 ct 
531 -94 535 -89 537 -83 ct 539 -77 540 -70 540 -62 ct p ef
693 0 m  693 -32 l  767 -32 l  767 -256 l  702 -209 l  702 -244 l  770 -292 l 
805 -292 l  805 -32 l  876 -32 l  876 0 l  693 0 l  p ef
1040 0 m  1040 -291 l  1261 -291 l  1261 -259 l  1079 -259 l  1079 -166 l 
1248 -166 l  1248 -134 l  1079 -134 l  1079 -32 l  1269 -32 l  1269 0 l 
1040 0 l  p ef
1328 0 m  1328 -32 l  1402 -32 l  1402 -256 l  1337 -209 l  1337 -244 l 
1405 -292 l  1440 -292 l  1440 -32 l  1511 -32 l  1511 0 l  1328 0 l  p ef
pom
pum
13064 9895 t
217 -113 m  217 -35 190 4 135 4 ct 118 4 104 1 93 -5 ct 82 -11 73 -21 66 -35 ct 
65 -35 l  65 -31 65 -27 65 -24 ct 65 -20 65 -16 64 -13 ct 64 -9 64 -6 64 -4 ct 
64 -2 63 -1 63 -1 ct 27 -1 l  27 -2 28 -4 28 -7 ct 28 -10 28 -13 28 -17 ct 28 -22 28 -26 28 -31 ct 
28 -36 29 -41 29 -47 ct 29 -307 l  66 -307 l  66 -220 l  66 -215 66 -211 66 -208 ct 
66 -204 65 -201 65 -198 ct 65 -194 65 -191 65 -188 ct 66 -188 l  73 -202 82 -212 93 -219 ct 
104 -225 118 -228 135 -228 ct 164 -228 184 -218 198 -199 ct 211 -180 217 -152 217 -113 ct 
p
178 -112 m  178 -127 177 -140 176 -151 ct 174 -163 171 -172 166 -179 ct 162 -186 157 -191 150 -194 ct 
143 -198 135 -199 126 -199 ct 116 -199 107 -198 100 -194 ct 92 -191 86 -186 81 -179 ct 
76 -172 72 -163 70 -151 ct 67 -140 66 -126 66 -110 ct 66 -94 67 -80 70 -69 ct 72 -58 76 -49 81 -43 ct 
86 -36 92 -31 100 -28 ct 107 -25 116 -24 125 -24 ct 134 -24 142 -25 149 -28 ct 
156 -31 161 -37 165 -44 ct 170 -51 173 -60 175 -71 ct 177 -82 178 -96 178 -112 ct 
p ef
266 -271 m  266 -307 l  303 -307 l  303 -271 l  266 -271 l  p
266 0 m  266 -224 l  303 -224 l  303 0 l  266 0 l  p ef
540 -62 m  540 -51 538 -42 534 -34 ct 530 -26 524 -19 516 -13 ct 509 -8 499 -3 488 0 ct 
477 3 464 4 450 4 ct 437 4 425 3 415 1 ct 404 -1 395 -4 387 -9 ct 379 -13 373 -19 367 -26 ct 
362 -33 358 -42 356 -53 ct 389 -59 l  392 -47 398 -38 408 -33 ct 418 -27 432 -24 450 -24 ct 
458 -24 465 -25 472 -26 ct 478 -27 484 -29 489 -32 ct 494 -34 497 -38 500 -42 ct 
503 -47 504 -52 504 -59 ct 504 -66 502 -71 499 -76 ct 496 -80 492 -84 486 -87 ct 
480 -89 474 -92 466 -94 ct 458 -96 449 -99 439 -101 ct 430 -104 421 -106 412 -109 ct 
404 -112 396 -116 389 -120 ct 381 -125 376 -131 371 -138 ct 367 -145 365 -154 365 -165 ct 
365 -185 372 -200 386 -211 ct 401 -222 422 -227 450 -227 ct 475 -227 494 -223 509 -214 ct 
523 -205 532 -192 536 -172 ct 503 -168 l  502 -174 499 -179 496 -183 ct 493 -187 489 -190 484 -192 ct 
479 -195 474 -196 468 -197 ct 462 -198 456 -199 450 -199 ct 433 -199 421 -196 413 -191 ct 
405 -186 401 -179 401 -168 ct 401 -162 402 -157 405 -153 ct 408 -149 412 -146 418 -143 ct 
423 -141 429 -138 437 -136 ct 444 -134 452 -132 461 -130 ct 467 -129 473 -127 479 -125 ct 
486 -123 492 -121 498 -119 ct 503 -117 509 -114 514 -111 ct 519 -107 524 -103 528 -99 ct 
531 -94 535 -89 537 -83 ct 539 -77 540 -70 540 -62 ct p ef
693 0 m  693 -32 l  767 -32 l  767 -256 l  702 -209 l  702 -244 l  770 -292 l 
805 -292 l  805 -32 l  876 -32 l  876 0 l  693 0 l  p ef
1040 0 m  1040 -291 l  1261 -291 l  1261 -259 l  1079 -259 l  1079 -166 l 
1248 -166 l  1248 -134 l  1079 -134 l  1079 -32 l  1269 -32 l  1269 0 l 
1040 0 l  p ef
1317 0 m  1317 -26 l  1324 -42 1333 -57 1343 -69 ct 1353 -81 1364 -93 1375 -103 ct 
1386 -113 1397 -122 1408 -130 ct 1419 -139 1429 -148 1438 -156 ct 1447 -165 1454 -174 1459 -183 ct 
1465 -192 1467 -203 1467 -215 ct 1467 -223 1466 -230 1464 -237 ct 1461 -243 1457 -248 1453 -253 ct 
1448 -257 1442 -260 1436 -262 ct 1429 -264 1422 -265 1414 -265 ct 1407 -265 1400 -264 1393 -262 ct 
1387 -260 1381 -257 1376 -253 ct 1371 -249 1366 -244 1363 -238 ct 1360 -231 1358 -224 1357 -216 ct 
1319 -220 l  1320 -230 1323 -240 1328 -249 ct 1332 -258 1338 -267 1346 -274 ct 
1354 -281 1364 -286 1375 -290 ct 1386 -294 1399 -296 1414 -296 ct 1429 -296 1441 -294 1453 -291 ct 
1464 -287 1474 -282 1481 -276 ct 1489 -269 1495 -260 1499 -250 ct 1503 -241 1505 -229 1505 -216 ct 
1505 -206 1504 -197 1500 -188 ct 1497 -179 1492 -171 1486 -163 ct 1480 -155 1473 -147 1466 -140 ct 
1458 -132 1450 -125 1442 -118 ct 1433 -111 1425 -104 1416 -97 ct 1408 -90 1400 -83 1392 -76 ct 
1385 -69 1378 -62 1372 -54 ct 1366 -47 1361 -40 1358 -32 ct 1510 -32 l  1510 0 l 
1317 0 l  p ef
pom
pum
15243 9895 t
217 -113 m  217 -35 190 4 135 4 ct 118 4 104 1 93 -5 ct 82 -11 73 -21 66 -35 ct 
65 -35 l  65 -31 65 -27 65 -24 ct 65 -20 65 -16 64 -13 ct 64 -9 64 -6 64 -4 ct 
64 -2 63 -1 63 -1 ct 27 -1 l  27 -2 28 -4 28 -7 ct 28 -10 28 -13 28 -17 ct 28 -22 28 -26 28 -31 ct 
28 -36 29 -41 29 -47 ct 29 -307 l  66 -307 l  66 -220 l  66 -215 66 -211 66 -208 ct 
66 -204 65 -201 65 -198 ct 65 -194 65 -191 65 -188 ct 66 -188 l  73 -202 82 -212 93 -219 ct 
104 -225 118 -228 135 -228 ct 164 -228 184 -218 198 -199 ct 211 -180 217 -152 217 -113 ct 
p
178 -112 m  178 -127 177 -140 176 -151 ct 174 -163 171 -172 166 -179 ct 162 -186 157 -191 150 -194 ct 
143 -198 135 -199 126 -199 ct 116 -199 107 -198 100 -194 ct 92 -191 86 -186 81 -179 ct 
76 -172 72 -163 70 -151 ct 67 -140 66 -126 66 -110 ct 66 -94 67 -80 70 -69 ct 72 -58 76 -49 81 -43 ct 
86 -36 92 -31 100 -28 ct 107 -25 116 -24 125 -24 ct 134 -24 142 -25 149 -28 ct 
156 -31 161 -37 165 -44 ct 170 -51 173 -60 175 -71 ct 177 -82 178 -96 178 -112 ct 
p ef
266 -271 m  266 -307 l  303 -307 l  303 -271 l  266 -271 l  p
266 0 m  266 -224 l  303 -224 l  303 0 l  266 0 l  p ef
540 -62 m  540 -51 538 -42 534 -34 ct 530 -26 524 -19 516 -13 ct 509 -8 499 -3 488 0 ct 
477 3 464 4 450 4 ct 437 4 425 3 415 1 ct 404 -1 395 -4 387 -9 ct 379 -13 373 -19 367 -26 ct 
362 -33 358 -42 356 -53 ct 389 -59 l  392 -47 398 -38 408 -33 ct 418 -27 432 -24 450 -24 ct 
458 -24 465 -25 472 -26 ct 478 -27 484 -29 489 -32 ct 494 -34 497 -38 500 -42 ct 
503 -47 504 -52 504 -59 ct 504 -66 502 -71 499 -76 ct 496 -80 492 -84 486 -87 ct 
480 -89 474 -92 466 -94 ct 458 -96 449 -99 439 -101 ct 430 -104 421 -106 412 -109 ct 
404 -112 396 -116 389 -120 ct 381 -125 376 -131 371 -138 ct 367 -145 365 -154 365 -165 ct 
365 -185 372 -200 386 -211 ct 401 -222 422 -227 450 -227 ct 475 -227 494 -223 509 -214 ct 
523 -205 532 -192 536 -172 ct 503 -168 l  502 -174 499 -179 496 -183 ct 493 -187 489 -190 484 -192 ct 
479 -195 474 -196 468 -197 ct 462 -198 456 -199 450 -199 ct 433 -199 421 -196 413 -191 ct 
405 -186 401 -179 401 -168 ct 401 -162 402 -157 405 -153 ct 408 -149 412 -146 418 -143 ct 
423 -141 429 -138 437 -136 ct 444 -134 452 -132 461 -130 ct 467 -129 473 -127 479 -125 ct 
486 -123 492 -121 498 -119 ct 503 -117 509 -114 514 -111 ct 519 -107 524 -103 528 -99 ct 
531 -94 535 -89 537 -83 ct 539 -77 540 -70 540 -62 ct p ef
693 0 m  693 -32 l  767 -32 l  767 -256 l  702 -209 l  702 -244 l  770 -292 l 
805 -292 l  805 -32 l  876 -32 l  876 0 l  693 0 l  p ef
1040 0 m  1040 -291 l  1261 -291 l  1261 -259 l  1079 -259 l  1079 -166 l 
1248 -166 l  1248 -134 l  1079 -134 l  1079 -32 l  1269 -32 l  1269 0 l 
1040 0 l  p ef
1513 -80 m  1513 -67 1510 -55 1506 -45 ct 1502 -34 1495 -25 1487 -18 ct 1479 -11 1469 -5 1456 -2 ct 
1444 2 1430 4 1414 4 ct 1396 4 1381 2 1368 -3 ct 1356 -7 1346 -13 1338 -20 ct 1330 -28 1324 -36 1320 -46 ct 
1316 -55 1313 -65 1312 -75 ct 1351 -78 l  1352 -71 1354 -64 1357 -57 ct 1360 -51 1364 -46 1369 -41 ct 
1374 -37 1380 -33 1388 -31 ct 1395 -28 1404 -27 1414 -27 ct 1433 -27 1447 -31 1458 -41 ct 
1469 -50 1474 -64 1474 -82 ct 1474 -92 1472 -101 1467 -108 ct 1462 -114 1456 -119 1449 -123 ct 
1442 -126 1434 -129 1426 -130 ct 1418 -131 1410 -132 1403 -132 ct 1382 -132 l 
1382 -164 l  1402 -164 l  1409 -164 1416 -165 1424 -166 ct 1432 -168 1439 -171 1445 -174 ct 
1451 -178 1456 -183 1460 -190 ct 1464 -196 1466 -205 1466 -215 ct 1466 -230 1462 -243 1453 -252 ct 
1444 -261 1430 -265 1412 -265 ct 1395 -265 1382 -261 1372 -253 ct 1362 -244 1356 -232 1354 -217 ct 
1317 -220 l  1319 -233 1322 -244 1328 -254 ct 1333 -263 1340 -271 1349 -277 ct 
1357 -284 1367 -288 1378 -291 ct 1388 -294 1400 -296 1412 -296 ct 1429 -296 1443 -294 1454 -290 ct 
1466 -286 1475 -280 1483 -273 ct 1490 -266 1496 -258 1499 -249 ct 1503 -239 1505 -229 1505 -219 ct 
1505 -210 1503 -202 1501 -195 ct 1499 -187 1495 -180 1490 -174 ct 1485 -169 1479 -163 1471 -159 ct 
1464 -155 1454 -152 1444 -149 ct 1444 -149 l  1455 -147 1466 -145 1474 -141 ct 
1483 -137 1490 -131 1496 -125 ct 1501 -119 1506 -112 1508 -105 ct 1511 -97 1513 -89 1513 -80 ct 
p ef
pom
pum
17422 9895 t
217 -113 m  217 -35 190 4 135 4 ct 118 4 104 1 93 -5 ct 82 -11 73 -21 66 -35 ct 
65 -35 l  65 -31 65 -27 65 -24 ct 65 -20 65 -16 64 -13 ct 64 -9 64 -6 64 -4 ct 
64 -2 63 -1 63 -1 ct 27 -1 l  27 -2 28 -4 28 -7 ct 28 -10 28 -13 28 -17 ct 28 -22 28 -26 28 -31 ct 
28 -36 29 -41 29 -47 ct 29 -307 l  66 -307 l  66 -220 l  66 -215 66 -211 66 -208 ct 
66 -204 65 -201 65 -198 ct 65 -194 65 -191 65 -188 ct 66 -188 l  73 -202 82 -212 93 -219 ct 
104 -225 118 -228 135 -228 ct 164 -228 184 -218 198 -199 ct 211 -180 217 -152 217 -113 ct 
p
178 -112 m  178 -127 177 -140 176 -151 ct 174 -163 171 -172 166 -179 ct 162 -186 157 -191 150 -194 ct 
143 -198 135 -199 126 -199 ct 116 -199 107 -198 100 -194 ct 92 -191 86 -186 81 -179 ct 
76 -172 72 -163 70 -151 ct 67 -140 66 -126 66 -110 ct 66 -94 67 -80 70 -69 ct 72 -58 76 -49 81 -43 ct 
86 -36 92 -31 100 -28 ct 107 -25 116 -24 125 -24 ct 134 -24 142 -25 149 -28 ct 
156 -31 161 -37 165 -44 ct 170 -51 173 -60 175 -71 ct 177 -82 178 -96 178 -112 ct 
p ef
266 -271 m  266 -307 l  303 -307 l  303 -271 l  266 -271 l  p
266 0 m  266 -224 l  303 -224 l  303 0 l  266 0 l  p ef
540 -62 m  540 -51 538 -42 534 -34 ct 530 -26 524 -19 516 -13 ct 509 -8 499 -3 488 0 ct 
477 3 464 4 450 4 ct 437 4 425 3 415 1 ct 404 -1 395 -4 387 -9 ct 379 -13 373 -19 367 -26 ct 
362 -33 358 -42 356 -53 ct 389 -59 l  392 -47 398 -38 408 -33 ct 418 -27 432 -24 450 -24 ct 
458 -24 465 -25 472 -26 ct 478 -27 484 -29 489 -32 ct 494 -34 497 -38 500 -42 ct 
503 -47 504 -52 504 -59 ct 504 -66 502 -71 499 -76 ct 496 -80 492 -84 486 -87 ct 
480 -89 474 -92 466 -94 ct 458 -96 449 -99 439 -101 ct 430 -104 421 -106 412 -109 ct 
404 -112 396 -116 389 -120 ct 381 -125 376 -131 371 -138 ct 367 -145 365 -154 365 -165 ct 
365 -185 372 -200 386 -211 ct 401 -222 422 -227 450 -227 ct 475 -227 494 -223 509 -214 ct 
523 -205 532 -192 536 -172 ct 503 -168 l  502 -174 499 -179 496 -183 ct 493 -187 489 -190 484 -192 ct 
479 -195 474 -196 468 -197 ct 462 -198 456 -199 450 -199 ct 433 -199 421 -196 413 -191 ct 
405 -186 401 -179 401 -168 ct 401 -162 402 -157 405 -153 ct 408 -149 412 -146 418 -143 ct 
423 -141 429 -138 437 -136 ct 444 -134 452 -132 461 -130 ct 467 -129 473 -127 479 -125 ct 
486 -123 492 -121 498 -119 ct 503 -117 509 -114 514 -111 ct 519 -107 524 -103 528 -99 ct 
531 -94 535 -89 537 -83 ct 539 -77 540 -70 540 -62 ct p ef
693 0 m  693 -32 l  767 -32 l  767 -256 l  702 -209 l  702 -244 l  770 -292 l 
805 -292 l  805 -32 l  876 -32 l  876 0 l  693 0 l  p ef
1040 0 m  1040 -291 l  1261 -291 l  1261 -259 l  1079 -259 l  1079 -166 l 
1248 -166 l  1248 -134 l  1079 -134 l  1079 -32 l  1269 -32 l  1269 0 l 
1040 0 l  p ef
1478 -66 m  1478 0 l  1443 0 l  1443 -66 l  1306 -66 l  1306 -95 l  1439 -292 l 
1478 -292 l  1478 -95 l  1519 -95 l  1519 -66 l  1478 -66 l  p
1443 -250 m  1443 -249 1442 -247 1441 -245 ct 1440 -243 1438 -241 1437 -239 ct 
1436 -236 1434 -234 1433 -231 ct 1431 -229 1430 -226 1429 -225 ct 1354 -114 l 
1354 -113 1353 -112 1351 -110 ct 1350 -108 1349 -106 1347 -104 ct 1346 -102 1345 -101 1343 -99 ct 
1342 -97 1341 -96 1340 -96 ct 1443 -96 l  1443 -250 l  p ef
pom
pum
19602 9895 t
217 -113 m  217 -35 190 4 135 4 ct 118 4 104 1 93 -5 ct 82 -11 73 -21 66 -35 ct 
65 -35 l  65 -31 65 -27 65 -24 ct 65 -20 65 -16 64 -13 ct 64 -9 64 -6 64 -4 ct 
64 -2 63 -1 63 -1 ct 27 -1 l  27 -2 28 -4 28 -7 ct 28 -10 28 -13 28 -17 ct 28 -22 28 -26 28 -31 ct 
28 -36 29 -41 29 -47 ct 29 -307 l  66 -307 l  66 -220 l  66 -215 66 -211 66 -208 ct 
66 -204 65 -201 65 -198 ct 65 -194 65 -191 65 -188 ct 66 -188 l  73 -202 82 -212 93 -219 ct 
104 -225 118 -228 135 -228 ct 164 -228 184 -218 198 -199 ct 211 -180 217 -152 217 -113 ct 
p
178 -112 m  178 -127 177 -140 176 -151 ct 174 -163 171 -172 166 -179 ct 162 -186 157 -191 150 -194 ct 
143 -198 135 -199 126 -199 ct 116 -199 107 -198 100 -194 ct 92 -191 86 -186 81 -179 ct 
76 -172 72 -163 70 -151 ct 67 -140 66 -126 66 -110 ct 66 -94 67 -80 70 -69 ct 72 -58 76 -49 81 -43 ct 
86 -36 92 -31 100 -28 ct 107 -25 116 -24 125 -24 ct 134 -24 142 -25 149 -28 ct 
156 -31 161 -37 165 -44 ct 170 -51 173 -60 175 -71 ct 177 -82 178 -96 178 -112 ct 
p ef
266 -271 m  266 -307 l  303 -307 l  303 -271 l  266 -271 l  p
266 0 m  266 -224 l  303 -224 l  303 0 l  266 0 l  p ef
540 -62 m  540 -51 538 -42 534 -34 ct 530 -26 524 -19 516 -13 ct 509 -8 499 -3 488 0 ct 
477 3 464 4 450 4 ct 437 4 425 3 415 1 ct 404 -1 395 -4 387 -9 ct 379 -13 373 -19 367 -26 ct 
362 -33 358 -42 356 -53 ct 389 -59 l  392 -47 398 -38 408 -33 ct 418 -27 432 -24 450 -24 ct 
458 -24 465 -25 472 -26 ct 478 -27 484 -29 489 -32 ct 494 -34 497 -38 500 -42 ct 
503 -47 504 -52 504 -59 ct 504 -66 502 -71 499 -76 ct 496 -80 492 -84 486 -87 ct 
480 -89 474 -92 466 -94 ct 458 -96 449 -99 439 -101 ct 430 -104 421 -106 412 -109 ct 
404 -112 396 -116 389 -120 ct 381 -125 376 -131 371 -138 ct 367 -145 365 -154 365 -165 ct 
365 -185 372 -200 386 -211 ct 401 -222 422 -227 450 -227 ct 475 -227 494 -223 509 -214 ct 
523 -205 532 -192 536 -172 ct 503 -168 l  502 -174 499 -179 496 -183 ct 493 -187 489 -190 484 -192 ct 
479 -195 474 -196 468 -197 ct 462 -198 456 -199 450 -199 ct 433 -199 421 -196 413 -191 ct 
405 -186 401 -179 401 -168 ct 401 -162 402 -157 405 -153 ct 408 -149 412 -146 418 -143 ct 
423 -141 429 -138 437 -136 ct 444 -134 452 -132 461 -130 ct 467 -129 473 -127 479 -125 ct 
486 -123 492 -121 498 -119 ct 503 -117 509 -114 514 -111 ct 519 -107 524 -103 528 -99 ct 
531 -94 535 -89 537 -83 ct 539 -77 540 -70 540 -62 ct p ef
693 0 m  693 -32 l  767 -32 l  767 -256 l  702 -209 l  702 -244 l  770 -292 l 
805 -292 l  805 -32 l  876 -32 l  876 0 l  693 0 l  p ef
1040 0 m  1040 -291 l  1261 -291 l  1261 -259 l  1079 -259 l  1079 -166 l 
1248 -166 l  1248 -134 l  1079 -134 l  1079 -32 l  1269 -32 l  1269 0 l 
1040 0 l  p ef
1513 -95 m  1513 -80 1511 -67 1507 -55 ct 1502 -43 1496 -32 1487 -24 ct 1479 -15 1468 -8 1455 -3 ct 
1442 2 1427 4 1410 4 ct 1395 4 1382 2 1370 -1 ct 1359 -5 1349 -10 1341 -16 ct 1334 -22 1327 -30 1323 -38 ct 
1318 -47 1315 -56 1313 -65 ct 1351 -70 l  1352 -64 1354 -59 1357 -54 ct 1360 -48 1363 -44 1368 -40 ct 
1373 -36 1379 -32 1386 -30 ct 1393 -28 1401 -26 1411 -26 ct 1421 -26 1429 -28 1437 -31 ct 
1445 -34 1452 -38 1457 -44 ct 1463 -50 1467 -57 1470 -65 ct 1473 -74 1475 -83 1475 -94 ct 
1475 -103 1473 -111 1471 -119 ct 1468 -126 1464 -133 1458 -138 ct 1453 -144 1446 -148 1438 -151 ct 
1431 -154 1422 -156 1412 -156 ct 1406 -156 1400 -155 1395 -154 ct 1389 -153 1385 -151 1380 -149 ct 
1376 -147 1372 -145 1368 -143 ct 1364 -140 1361 -137 1358 -135 ct 1321 -135 l 
1331 -292 l  1497 -292 l  1497 -260 l  1365 -260 l  1359 -167 l  1366 -173 1374 -177 1384 -181 ct 
1394 -184 1406 -186 1420 -186 ct 1434 -186 1447 -184 1459 -179 ct 1470 -175 1480 -169 1488 -161 ct 
1496 -153 1502 -143 1507 -132 ct 1511 -121 1513 -108 1513 -95 ct p ef
pom
pum
10101 9421 t
201 -134 m  201 -108 198 -86 193 -69 ct 188 -51 182 -37 173 -26 ct 165 -15 155 -8 144 -3 ct 
132 2 120 4 107 4 ct 94 4 82 2 71 -3 ct 60 -8 50 -15 42 -26 ct 34 -37 27 -51 22 -69 ct 
18 -86 15 -108 15 -134 ct 15 -160 18 -183 22 -200 ct 27 -218 34 -232 42 -243 ct 
50 -253 60 -260 71 -265 ct 83 -269 95 -271 109 -271 ct 121 -271 133 -269 144 -265 ct 
156 -260 165 -253 174 -243 ct 182 -232 189 -218 193 -200 ct 198 -183 201 -160 201 -134 ct 
p
166 -134 m  166 -155 165 -172 162 -187 ct 160 -201 156 -212 151 -220 ct 146 -229 140 -235 133 -238 ct 
126 -242 118 -243 109 -243 ct 99 -243 91 -242 83 -238 ct 76 -234 70 -228 65 -220 ct 
60 -212 56 -200 53 -186 ct 51 -172 50 -155 50 -134 ct 50 -113 51 -96 54 -82 ct 
56 -68 60 -56 65 -48 ct 70 -39 76 -33 83 -29 ct 90 -26 99 -24 108 -24 ct 117 -24 125 -26 132 -29 ct 
139 -33 145 -39 150 -48 ct 155 -56 159 -68 162 -82 ct 165 -96 166 -113 166 -134 ct 
p ef
pom
pum
9255 8033 t
30 0 m  30 -29 l  98 -29 l  98 -234 l  37 -191 l  37 -224 l  100 -267 l 
132 -267 l  132 -29 l  197 -29 l  197 0 l  30 0 l  p ef
413 -134 m  413 -108 410 -86 405 -69 ct 400 -51 394 -37 385 -26 ct 377 -15 367 -8 356 -3 ct 
344 2 332 4 319 4 ct 306 4 294 2 283 -3 ct 272 -8 262 -15 254 -26 ct 246 -37 239 -51 234 -69 ct 
230 -86 227 -108 227 -134 ct 227 -160 230 -183 234 -200 ct 239 -218 246 -232 254 -243 ct 
262 -253 272 -260 283 -265 ct 295 -269 307 -271 321 -271 ct 333 -271 345 -269 356 -265 ct 
368 -260 377 -253 386 -243 ct 394 -232 401 -218 405 -200 ct 410 -183 413 -160 413 -134 ct 
p
378 -134 m  378 -155 377 -172 374 -187 ct 372 -201 368 -212 363 -220 ct 358 -229 352 -235 345 -238 ct 
338 -242 330 -243 321 -243 ct 311 -243 303 -242 295 -238 ct 288 -234 282 -228 277 -220 ct 
272 -212 268 -200 265 -186 ct 263 -172 262 -155 262 -134 ct 262 -113 263 -96 266 -82 ct 
268 -68 272 -56 277 -48 ct 282 -39 288 -33 295 -29 ct 302 -26 311 -24 320 -24 ct 
329 -24 337 -26 344 -29 ct 351 -33 357 -39 362 -48 ct 367 -56 371 -68 374 -82 ct 
377 -96 378 -113 378 -134 ct p ef
624 -134 m  624 -108 621 -86 616 -69 ct 611 -51 605 -37 596 -26 ct 588 -15 578 -8 567 -3 ct 
555 2 543 4 530 4 ct 517 4 505 2 494 -3 ct 483 -8 473 -15 465 -26 ct 457 -37 450 -51 445 -69 ct 
441 -86 438 -108 438 -134 ct 438 -160 441 -183 445 -200 ct 450 -218 457 -232 465 -243 ct 
473 -253 483 -260 494 -265 ct 506 -269 518 -271 532 -271 ct 544 -271 556 -269 567 -265 ct 
579 -260 588 -253 597 -243 ct 605 -232 612 -218 616 -200 ct 621 -183 624 -160 624 -134 ct 
p
589 -134 m  589 -155 588 -172 585 -187 ct 583 -201 579 -212 574 -220 ct 569 -229 563 -235 556 -238 ct 
549 -242 541 -243 532 -243 ct 522 -243 514 -242 506 -238 ct 499 -234 493 -228 488 -220 ct 
483 -212 479 -200 476 -186 ct 474 -172 473 -155 473 -134 ct 473 -113 474 -96 477 -82 ct 
479 -68 483 -56 488 -48 ct 493 -39 499 -33 506 -29 ct 513 -26 522 -24 531 -24 ct 
540 -24 548 -26 555 -29 ct 562 -33 568 -39 573 -48 ct 578 -56 582 -68 585 -82 ct 
588 -96 589 -113 589 -134 ct p ef
836 -134 m  836 -108 833 -86 828 -69 ct 823 -51 817 -37 808 -26 ct 800 -15 790 -8 779 -3 ct 
767 2 755 4 742 4 ct 729 4 717 2 706 -3 ct 695 -8 685 -15 677 -26 ct 669 -37 662 -51 657 -69 ct 
653 -86 650 -108 650 -134 ct 650 -160 653 -183 657 -200 ct 662 -218 669 -232 677 -243 ct 
685 -253 695 -260 706 -265 ct 718 -269 730 -271 744 -271 ct 756 -271 768 -269 779 -265 ct 
791 -260 800 -253 809 -243 ct 817 -232 824 -218 828 -200 ct 833 -183 836 -160 836 -134 ct 
p
801 -134 m  801 -155 800 -172 797 -187 ct 795 -201 791 -212 786 -220 ct 781 -229 775 -235 768 -238 ct 
761 -242 753 -243 744 -243 ct 734 -243 726 -242 718 -238 ct 711 -234 705 -228 700 -220 ct 
695 -212 691 -200 688 -186 ct 686 -172 685 -155 685 -134 ct 685 -113 686 -96 689 -82 ct 
691 -68 695 -56 700 -48 ct 705 -39 711 -33 718 -29 ct 725 -26 734 -24 743 -24 ct 
752 -24 760 -26 767 -29 ct 774 -33 780 -39 785 -48 ct 790 -56 794 -68 797 -82 ct 
800 -96 801 -113 801 -134 ct p ef
1048 -134 m  1048 -108 1045 -86 1040 -69 ct 1035 -51 1029 -37 1020 -26 ct 1012 -15 1002 -8 991 -3 ct 
979 2 967 4 954 4 ct 941 4 929 2 918 -3 ct 907 -8 897 -15 889 -26 ct 881 -37 874 -51 869 -69 ct 
865 -86 862 -108 862 -134 ct 862 -160 865 -183 869 -200 ct 874 -218 881 -232 889 -243 ct 
897 -253 907 -260 918 -265 ct 930 -269 942 -271 956 -271 ct 968 -271 980 -269 991 -265 ct 
1003 -260 1012 -253 1021 -243 ct 1029 -232 1036 -218 1040 -200 ct 1045 -183 1048 -160 1048 -134 ct 
p
1013 -134 m  1013 -155 1012 -172 1009 -187 ct 1007 -201 1003 -212 998 -220 ct 
993 -229 987 -235 980 -238 ct 973 -242 965 -243 956 -243 ct 946 -243 938 -242 930 -238 ct 
923 -234 917 -228 912 -220 ct 907 -212 903 -200 900 -186 ct 898 -172 897 -155 897 -134 ct 
897 -113 898 -96 901 -82 ct 903 -68 907 -56 912 -48 ct 917 -39 923 -33 930 -29 ct 
937 -26 946 -24 955 -24 ct 964 -24 972 -26 979 -29 ct 986 -33 992 -39 997 -48 ct 
1002 -56 1006 -68 1009 -82 ct 1012 -96 1013 -113 1013 -134 ct p ef
pom
pum
9255 6645 t
20 0 m  20 -24 l  26 -39 34 -52 43 -63 ct 52 -75 62 -85 72 -94 ct 83 -103 93 -112 103 -119 ct 
113 -127 122 -135 130 -143 ct 138 -151 145 -159 150 -168 ct 155 -176 157 -186 157 -197 ct 
157 -204 156 -211 154 -217 ct 151 -223 148 -227 144 -231 ct 140 -235 134 -238 128 -240 ct 
122 -242 116 -243 108 -243 ct 102 -243 95 -242 89 -240 ct 83 -238 78 -235 73 -232 ct 
68 -228 65 -223 62 -218 ct 59 -212 57 -205 56 -198 ct 21 -201 l  22 -211 25 -220 29 -228 ct 
33 -237 39 -244 46 -250 ct 54 -257 62 -262 73 -266 ct 83 -269 95 -271 108 -271 ct 
122 -271 133 -269 144 -266 ct 154 -263 163 -258 170 -252 ct 177 -246 183 -238 186 -229 ct 
190 -220 192 -210 192 -198 ct 192 -189 191 -180 187 -172 ct 184 -164 180 -157 174 -149 ct 
169 -142 163 -135 156 -128 ct 149 -121 141 -114 134 -108 ct 126 -101 118 -95 110 -89 ct 
102 -82 95 -76 88 -69 ct 81 -63 75 -56 70 -50 ct 64 -43 60 -36 57 -29 ct 196 -29 l 
196 0 l  20 0 l  p ef
413 -134 m  413 -108 410 -86 405 -69 ct 400 -51 394 -37 385 -26 ct 377 -15 367 -8 356 -3 ct 
344 2 332 4 319 4 ct 306 4 294 2 283 -3 ct 272 -8 262 -15 254 -26 ct 246 -37 239 -51 234 -69 ct 
230 -86 227 -108 227 -134 ct 227 -160 230 -183 234 -200 ct 239 -218 246 -232 254 -243 ct 
262 -253 272 -260 283 -265 ct 295 -269 307 -271 321 -271 ct 333 -271 345 -269 356 -265 ct 
368 -260 377 -253 386 -243 ct 394 -232 401 -218 405 -200 ct 410 -183 413 -160 413 -134 ct 
p
378 -134 m  378 -155 377 -172 374 -187 ct 372 -201 368 -212 363 -220 ct 358 -229 352 -235 345 -238 ct 
338 -242 330 -243 321 -243 ct 311 -243 303 -242 295 -238 ct 288 -234 282 -228 277 -220 ct 
272 -212 268 -200 265 -186 ct 263 -172 262 -155 262 -134 ct 262 -113 263 -96 266 -82 ct 
268 -68 272 -56 277 -48 ct 282 -39 288 -33 295 -29 ct 302 -26 311 -24 320 -24 ct 
329 -24 337 -26 344 -29 ct 351 -33 357 -39 362 -48 ct 367 -56 371 -68 374 -82 ct 
377 -96 378 -113 378 -134 ct p ef
624 -134 m  624 -108 621 -86 616 -69 ct 611 -51 605 -37 596 -26 ct 588 -15 578 -8 567 -3 ct 
555 2 543 4 530 4 ct 517 4 505 2 494 -3 ct 483 -8 473 -15 465 -26 ct 457 -37 450 -51 445 -69 ct 
441 -86 438 -108 438 -134 ct 438 -160 441 -183 445 -200 ct 450 -218 457 -232 465 -243 ct 
473 -253 483 -260 494 -265 ct 506 -269 518 -271 532 -271 ct 544 -271 556 -269 567 -265 ct 
579 -260 588 -253 597 -243 ct 605 -232 612 -218 616 -200 ct 621 -183 624 -160 624 -134 ct 
p
589 -134 m  589 -155 588 -172 585 -187 ct 583 -201 579 -212 574 -220 ct 569 -229 563 -235 556 -238 ct 
549 -242 541 -243 532 -243 ct 522 -243 514 -242 506 -238 ct 499 -234 493 -228 488 -220 ct 
483 -212 479 -200 476 -186 ct 474 -172 473 -155 473 -134 ct 473 -113 474 -96 477 -82 ct 
479 -68 483 -56 488 -48 ct 493 -39 499 -33 506 -29 ct 513 -26 522 -24 531 -24 ct 
540 -24 548 -26 555 -29 ct 562 -33 568 -39 573 -48 ct 578 -56 582 -68 585 -82 ct 
588 -96 589 -113 589 -134 ct p ef
836 -134 m  836 -108 833 -86 828 -69 ct 823 -51 817 -37 808 -26 ct 800 -15 790 -8 779 -3 ct 
767 2 755 4 742 4 ct 729 4 717 2 706 -3 ct 695 -8 685 -15 677 -26 ct 669 -37 662 -51 657 -69 ct 
653 -86 650 -108 650 -134 ct 650 -160 653 -183 657 -200 ct 662 -218 669 -232 677 -243 ct 
685 -253 695 -260 706 -265 ct 718 -269 730 -271 744 -271 ct 756 -271 768 -269 779 -265 ct 
791 -260 800 -253 809 -243 ct 817 -232 824 -218 828 -200 ct 833 -183 836 -160 836 -134 ct 
p
801 -134 m  801 -155 800 -172 797 -187 ct 795 -201 791 -212 786 -220 ct 781 -229 775 -235 768 -238 ct 
761 -242 753 -243 744 -243 ct 734 -243 726 -242 718 -238 ct 711 -234 705 -228 700 -220 ct 
695 -212 691 -200 688 -186 ct 686 -172 685 -155 685 -134 ct 685 -113 686 -96 689 -82 ct 
691 -68 695 -56 700 -48 ct 705 -39 711 -33 718 -29 ct 725 -26 734 -24 743 -24 ct 
752 -24 760 -26 767 -29 ct 774 -33 780 -39 785 -48 ct 790 -56 794 -68 797 -82 ct 
800 -96 801 -113 801 -134 ct p ef
1048 -134 m  1048 -108 1045 -86 1040 -69 ct 1035 -51 1029 -37 1020 -26 ct 1012 -15 1002 -8 991 -3 ct 
979 2 967 4 954 4 ct 941 4 929 2 918 -3 ct 907 -8 897 -15 889 -26 ct 881 -37 874 -51 869 -69 ct 
865 -86 862 -108 862 -134 ct 862 -160 865 -183 869 -200 ct 874 -218 881 -232 889 -243 ct 
897 -253 907 -260 918 -265 ct 930 -269 942 -271 956 -271 ct 968 -271 980 -269 991 -265 ct 
1003 -260 1012 -253 1021 -243 ct 1029 -232 1036 -218 1040 -200 ct 1045 -183 1048 -160 1048 -134 ct 
p
1013 -134 m  1013 -155 1012 -172 1009 -187 ct 1007 -201 1003 -212 998 -220 ct 
993 -229 987 -235 980 -238 ct 973 -242 965 -243 956 -243 ct 946 -243 938 -242 930 -238 ct 
923 -234 917 -228 912 -220 ct 907 -212 903 -200 900 -186 ct 898 -172 897 -155 897 -134 ct 
897 -113 898 -96 901 -82 ct 903 -68 907 -56 912 -48 ct 917 -39 923 -33 930 -29 ct 
937 -26 946 -24 955 -24 ct 964 -24 972 -26 979 -29 ct 986 -33 992 -39 997 -48 ct 
1002 -56 1006 -68 1009 -82 ct 1012 -96 1013 -113 1013 -134 ct p ef
pom
pum
9255 5257 t
199 -74 m  199 -61 197 -50 193 -41 ct 189 -31 183 -23 175 -16 ct 168 -10 158 -5 147 -1 ct 
136 2 123 4 108 4 ct 92 4 78 2 66 -2 ct 55 -6 46 -12 38 -18 ct 31 -25 26 -33 22 -42 ct 
18 -50 16 -59 15 -68 ct 50 -72 l  51 -65 53 -58 56 -52 ct 58 -47 62 -42 67 -37 ct 
71 -33 77 -30 84 -28 ct 91 -25 99 -24 108 -24 ct 125 -24 139 -29 149 -37 ct 158 -45 163 -58 163 -75 ct 
163 -85 161 -93 157 -99 ct 152 -105 147 -109 140 -113 ct 134 -116 127 -118 119 -119 ct 
112 -120 105 -121 98 -121 ct 79 -121 l  79 -151 l  97 -151 l  104 -151 111 -151 117 -153 ct 
124 -154 131 -156 137 -160 ct 142 -163 147 -168 151 -174 ct 154 -180 156 -187 156 -197 ct 
156 -211 152 -222 144 -231 ct 135 -239 123 -243 106 -243 ct 91 -243 79 -239 70 -231 ct 
61 -224 55 -213 54 -199 ct 19 -201 l  21 -213 24 -223 29 -232 ct 34 -241 40 -248 48 -254 ct 
56 -260 65 -264 75 -267 ct 85 -270 95 -271 107 -271 ct 122 -271 134 -269 145 -265 ct 
156 -262 165 -257 171 -250 ct 178 -244 183 -236 187 -228 ct 190 -219 191 -210 191 -200 ct 
191 -192 190 -185 188 -178 ct 186 -171 183 -165 178 -160 ct 174 -154 168 -150 161 -146 ct 
154 -142 145 -139 135 -137 ct 135 -136 l  146 -135 156 -133 164 -129 ct 171 -125 178 -120 183 -115 ct 
188 -109 192 -103 195 -96 ct 197 -89 199 -81 199 -74 ct p ef
413 -134 m  413 -108 410 -86 405 -69 ct 400 -51 394 -37 385 -26 ct 377 -15 367 -8 356 -3 ct 
344 2 332 4 319 4 ct 306 4 294 2 283 -3 ct 272 -8 262 -15 254 -26 ct 246 -37 239 -51 234 -69 ct 
230 -86 227 -108 227 -134 ct 227 -160 230 -183 234 -200 ct 239 -218 246 -232 254 -243 ct 
262 -253 272 -260 283 -265 ct 295 -269 307 -271 321 -271 ct 333 -271 345 -269 356 -265 ct 
368 -260 377 -253 386 -243 ct 394 -232 401 -218 405 -200 ct 410 -183 413 -160 413 -134 ct 
p
378 -134 m  378 -155 377 -172 374 -187 ct 372 -201 368 -212 363 -220 ct 358 -229 352 -235 345 -238 ct 
338 -242 330 -243 321 -243 ct 311 -243 303 -242 295 -238 ct 288 -234 282 -228 277 -220 ct 
272 -212 268 -200 265 -186 ct 263 -172 262 -155 262 -134 ct 262 -113 263 -96 266 -82 ct 
268 -68 272 -56 277 -48 ct 282 -39 288 -33 295 -29 ct 302 -26 311 -24 320 -24 ct 
329 -24 337 -26 344 -29 ct 351 -33 357 -39 362 -48 ct 367 -56 371 -68 374 -82 ct 
377 -96 378 -113 378 -134 ct p ef
624 -134 m  624 -108 621 -86 616 -69 ct 611 -51 605 -37 596 -26 ct 588 -15 578 -8 567 -3 ct 
555 2 543 4 530 4 ct 517 4 505 2 494 -3 ct 483 -8 473 -15 465 -26 ct 457 -37 450 -51 445 -69 ct 
441 -86 438 -108 438 -134 ct 438 -160 441 -183 445 -200 ct 450 -218 457 -232 465 -243 ct 
473 -253 483 -260 494 -265 ct 506 -269 518 -271 532 -271 ct 544 -271 556 -269 567 -265 ct 
579 -260 588 -253 597 -243 ct 605 -232 612 -218 616 -200 ct 621 -183 624 -160 624 -134 ct 
p
589 -134 m  589 -155 588 -172 585 -187 ct 583 -201 579 -212 574 -220 ct 569 -229 563 -235 556 -238 ct 
549 -242 541 -243 532 -243 ct 522 -243 514 -242 506 -238 ct 499 -234 493 -228 488 -220 ct 
483 -212 479 -200 476 -186 ct 474 -172 473 -155 473 -134 ct 473 -113 474 -96 477 -82 ct 
479 -68 483 -56 488 -48 ct 493 -39 499 -33 506 -29 ct 513 -26 522 -24 531 -24 ct 
540 -24 548 -26 555 -29 ct 562 -33 568 -39 573 -48 ct 578 -56 582 -68 585 -82 ct 
588 -96 589 -113 589 -134 ct p ef
836 -134 m  836 -108 833 -86 828 -69 ct 823 -51 817 -37 808 -26 ct 800 -15 790 -8 779 -3 ct 
767 2 755 4 742 4 ct 729 4 717 2 706 -3 ct 695 -8 685 -15 677 -26 ct 669 -37 662 -51 657 -69 ct 
653 -86 650 -108 650 -134 ct 650 -160 653 -183 657 -200 ct 662 -218 669 -232 677 -243 ct 
685 -253 695 -260 706 -265 ct 718 -269 730 -271 744 -271 ct 756 -271 768 -269 779 -265 ct 
791 -260 800 -253 809 -243 ct 817 -232 824 -218 828 -200 ct 833 -183 836 -160 836 -134 ct 
p
801 -134 m  801 -155 800 -172 797 -187 ct 795 -201 791 -212 786 -220 ct 781 -229 775 -235 768 -238 ct 
761 -242 753 -243 744 -243 ct 734 -243 726 -242 718 -238 ct 711 -234 705 -228 700 -220 ct 
695 -212 691 -200 688 -186 ct 686 -172 685 -155 685 -134 ct 685 -113 686 -96 689 -82 ct 
691 -68 695 -56 700 -48 ct 705 -39 711 -33 718 -29 ct 725 -26 734 -24 743 -24 ct 
752 -24 760 -26 767 -29 ct 774 -33 780 -39 785 -48 ct 790 -56 794 -68 797 -82 ct 
800 -96 801 -113 801 -134 ct p ef
1048 -134 m  1048 -108 1045 -86 1040 -69 ct 1035 -51 1029 -37 1020 -26 ct 1012 -15 1002 -8 991 -3 ct 
979 2 967 4 954 4 ct 941 4 929 2 918 -3 ct 907 -8 897 -15 889 -26 ct 881 -37 874 -51 869 -69 ct 
865 -86 862 -108 862 -134 ct 862 -160 865 -183 869 -200 ct 874 -218 881 -232 889 -243 ct 
897 -253 907 -260 918 -265 ct 930 -269 942 -271 956 -271 ct 968 -271 980 -269 991 -265 ct 
1003 -260 1012 -253 1021 -243 ct 1029 -232 1036 -218 1040 -200 ct 1045 -183 1048 -160 1048 -134 ct 
p
1013 -134 m  1013 -155 1012 -172 1009 -187 ct 1007 -201 1003 -212 998 -220 ct 
993 -229 987 -235 980 -238 ct 973 -242 965 -243 956 -243 ct 946 -243 938 -242 930 -238 ct 
923 -234 917 -228 912 -220 ct 907 -212 903 -200 900 -186 ct 898 -172 897 -155 897 -134 ct 
897 -113 898 -96 901 -82 ct 903 -68 907 -56 912 -48 ct 917 -39 923 -33 930 -29 ct 
937 -26 946 -24 955 -24 ct 964 -24 972 -26 979 -29 ct 986 -33 992 -39 997 -48 ct 
1002 -56 1006 -68 1009 -82 ct 1012 -96 1013 -113 1013 -134 ct p ef
pom
pum
9255 3870 t
167 -61 m  167 -1 l  135 -1 l  135 -61 l  9 -61 l  9 -88 l  131 -268 l 
167 -268 l  167 -88 l  204 -88 l  204 -61 l  167 -61 l  p
135 -229 m  134 -228 134 -227 133 -225 ct 132 -223 131 -221 129 -219 ct 128 -217 127 -215 126 -212 ct 
124 -210 123 -208 122 -206 ct 54 -105 l  53 -104 52 -103 51 -101 ct 50 -99 48 -98 47 -96 ct 
46 -94 45 -93 43 -91 ct 42 -89 41 -89 40 -89 ct 135 -89 l  135 -229 l  p ef
413 -134 m  413 -108 410 -86 405 -69 ct 400 -51 394 -37 385 -26 ct 377 -15 367 -8 356 -3 ct 
344 2 332 4 319 4 ct 306 4 294 2 283 -3 ct 272 -8 262 -15 254 -26 ct 246 -37 239 -51 234 -69 ct 
230 -86 227 -108 227 -134 ct 227 -160 230 -183 234 -200 ct 239 -218 246 -232 254 -243 ct 
262 -253 272 -260 283 -265 ct 295 -269 307 -271 321 -271 ct 333 -271 345 -269 356 -265 ct 
368 -260 377 -253 386 -243 ct 394 -232 401 -218 405 -200 ct 410 -183 413 -160 413 -134 ct 
p
378 -134 m  378 -155 377 -172 374 -187 ct 372 -201 368 -212 363 -220 ct 358 -229 352 -235 345 -238 ct 
338 -242 330 -243 321 -243 ct 311 -243 303 -242 295 -238 ct 288 -234 282 -228 277 -220 ct 
272 -212 268 -200 265 -186 ct 263 -172 262 -155 262 -134 ct 262 -113 263 -96 266 -82 ct 
268 -68 272 -56 277 -48 ct 282 -39 288 -33 295 -29 ct 302 -26 311 -24 320 -24 ct 
329 -24 337 -26 344 -29 ct 351 -33 357 -39 362 -48 ct 367 -56 371 -68 374 -82 ct 
377 -96 378 -113 378 -134 ct p ef
624 -134 m  624 -108 621 -86 616 -69 ct 611 -51 605 -37 596 -26 ct 588 -15 578 -8 567 -3 ct 
555 2 543 4 530 4 ct 517 4 505 2 494 -3 ct 483 -8 473 -15 465 -26 ct 457 -37 450 -51 445 -69 ct 
441 -86 438 -108 438 -134 ct 438 -160 441 -183 445 -200 ct 450 -218 457 -232 465 -243 ct 
473 -253 483 -260 494 -265 ct 506 -269 518 -271 532 -271 ct 544 -271 556 -269 567 -265 ct 
579 -260 588 -253 597 -243 ct 605 -232 612 -218 616 -200 ct 621 -183 624 -160 624 -134 ct 
p
589 -134 m  589 -155 588 -172 585 -187 ct 583 -201 579 -212 574 -220 ct 569 -229 563 -235 556 -238 ct 
549 -242 541 -243 532 -243 ct 522 -243 514 -242 506 -238 ct 499 -234 493 -228 488 -220 ct 
483 -212 479 -200 476 -186 ct 474 -172 473 -155 473 -134 ct 473 -113 474 -96 477 -82 ct 
479 -68 483 -56 488 -48 ct 493 -39 499 -33 506 -29 ct 513 -26 522 -24 531 -24 ct 
540 -24 548 -26 555 -29 ct 562 -33 568 -39 573 -48 ct 578 -56 582 -68 585 -82 ct 
588 -96 589 -113 589 -134 ct p ef
836 -134 m  836 -108 833 -86 828 -69 ct 823 -51 817 -37 808 -26 ct 800 -15 790 -8 779 -3 ct 
767 2 755 4 742 4 ct 729 4 717 2 706 -3 ct 695 -8 685 -15 677 -26 ct 669 -37 662 -51 657 -69 ct 
653 -86 650 -108 650 -134 ct 650 -160 653 -183 657 -200 ct 662 -218 669 -232 677 -243 ct 
685 -253 695 -260 706 -265 ct 718 -269 730 -271 744 -271 ct 756 -271 768 -269 779 -265 ct 
791 -260 800 -253 809 -243 ct 817 -232 824 -218 828 -200 ct 833 -183 836 -160 836 -134 ct 
p
801 -134 m  801 -155 800 -172 797 -187 ct 795 -201 791 -212 786 -220 ct 781 -229 775 -235 768 -238 ct 
761 -242 753 -243 744 -243 ct 734 -243 726 -242 718 -238 ct 711 -234 705 -228 700 -220 ct 
695 -212 691 -200 688 -186 ct 686 -172 685 -155 685 -134 ct 685 -113 686 -96 689 -82 ct 
691 -68 695 -56 700 -48 ct 705 -39 711 -33 718 -29 ct 725 -26 734 -24 743 -24 ct 
752 -24 760 -26 767 -29 ct 774 -33 780 -39 785 -48 ct 790 -56 794 -68 797 -82 ct 
800 -96 801 -113 801 -134 ct p ef
1048 -134 m  1048 -108 1045 -86 1040 -69 ct 1035 -51 1029 -37 1020 -26 ct 1012 -15 1002 -8 991 -3 ct 
979 2 967 4 954 4 ct 941 4 929 2 918 -3 ct 907 -8 897 -15 889 -26 ct 881 -37 874 -51 869 -69 ct 
865 -86 862 -108 862 -134 ct 862 -160 865 -183 869 -200 ct 874 -218 881 -232 889 -243 ct 
897 -253 907 -260 918 -265 ct 930 -269 942 -271 956 -271 ct 968 -271 980 -269 991 -265 ct 
1003 -260 1012 -253 1021 -243 ct 1029 -232 1036 -218 1040 -200 ct 1045 -183 1048 -160 1048 -134 ct 
p
1013 -134 m  1013 -155 1012 -172 1009 -187 ct 1007 -201 1003 -212 998 -220 ct 
993 -229 987 -235 980 -238 ct 973 -242 965 -243 956 -243 ct 946 -243 938 -242 930 -238 ct 
923 -234 917 -228 912 -220 ct 907 -212 903 -200 900 -186 ct 898 -172 897 -155 897 -134 ct 
897 -113 898 -96 901 -82 ct 903 -68 907 -56 912 -48 ct 917 -39 923 -33 930 -29 ct 
937 -26 946 -24 955 -24 ct 964 -24 972 -26 979 -29 ct 986 -33 992 -39 997 -48 ct 
1002 -56 1006 -68 1009 -82 ct 1012 -96 1013 -113 1013 -134 ct p ef
pom
pum
11374 9072 t
27 0 m  27 -26 l  89 -26 l  89 -213 l  34 -174 l  34 -204 l  91 -243 l 
120 -243 l  120 -26 l  179 -26 l  179 0 l  27 0 l  p ef
364 -218 m  351 -200 340 -182 330 -165 ct 320 -147 311 -130 304 -113 ct 296 -95 291 -77 286 -59 ct 
282 -41 280 -21 280 -1 ct 248 -1 l  248 -20 250 -39 255 -58 ct 259 -76 266 -95 273 -113 ct 
281 -131 290 -148 301 -166 ct 311 -183 322 -200 334 -217 ct 203 -217 l  203 -243 l 
364 -243 l  364 -218 l  p ef
549 -218 m  536 -200 525 -182 515 -165 ct 505 -147 496 -130 489 -113 ct 481 -95 476 -77 471 -59 ct 
467 -41 465 -21 465 -1 ct 433 -1 l  433 -20 435 -39 440 -58 ct 444 -76 451 -95 458 -113 ct 
466 -131 475 -148 486 -166 ct 496 -183 507 -200 519 -217 ct 388 -217 l  388 -243 l 
549 -243 l  549 -218 l  p ef
pom
pum
13461 8952 t
27 0 m  27 -26 l  89 -26 l  89 -213 l  34 -174 l  34 -204 l  91 -243 l 
120 -243 l  120 -26 l  179 -26 l  179 0 l  27 0 l  p ef
368 -122 m  368 -99 365 -79 361 -63 ct 356 -47 350 -34 343 -25 ct 335 -15 326 -8 316 -3 ct 
305 1 294 3 283 3 ct 271 3 260 1 250 -3 ct 239 -8 231 -15 223 -24 ct 215 -34 210 -47 205 -63 ct 
201 -79 199 -99 199 -122 ct 199 -146 201 -167 205 -183 ct 210 -199 216 -212 223 -221 ct 
231 -231 240 -237 250 -241 ct 260 -245 272 -247 284 -247 ct 295 -247 306 -245 316 -241 ct 
327 -237 335 -231 343 -221 ct 351 -212 357 -199 361 -183 ct 365 -167 368 -146 368 -122 ct 
p
336 -122 m  336 -141 335 -157 333 -170 ct 330 -183 327 -193 322 -201 ct 318 -209 312 -214 306 -217 ct 
299 -220 292 -222 284 -222 ct 275 -222 267 -220 261 -217 ct 254 -214 248 -208 244 -201 ct 
239 -193 236 -183 234 -170 ct 231 -157 230 -141 230 -122 ct 230 -103 231 -88 234 -75 ct 
236 -62 239 -52 244 -44 ct 249 -36 254 -31 261 -27 ct 267 -24 275 -22 283 -22 ct 
291 -22 299 -24 305 -27 ct 312 -31 317 -36 322 -44 ct 326 -52 330 -62 332 -75 ct 
335 -88 336 -103 336 -122 ct p ef
522 -55 m  522 0 l  493 0 l  493 -55 l  378 -55 l  378 -79 l  489 -243 l 
522 -243 l  522 -79 l  556 -79 l  556 -55 l  522 -55 l  p
493 -208 m  492 -207 492 -206 491 -205 ct 490 -203 489 -201 488 -199 ct 487 -197 485 -195 484 -193 ct 
483 -191 482 -189 481 -187 ct 419 -95 l  418 -94 417 -93 416 -91 ct 415 -90 414 -88 413 -87 ct 
412 -85 411 -84 409 -82 ct 408 -81 407 -80 407 -80 ct 493 -80 l  493 -208 l 
p ef
574 0 m  574 -22 l  580 -35 587 -47 595 -58 ct 604 -68 613 -77 622 -85 ct 631 -94 640 -101 650 -109 ct 
659 -116 667 -123 674 -130 ct 682 -137 688 -145 692 -152 ct 697 -160 699 -169 699 -179 ct 
699 -186 698 -192 696 -197 ct 694 -202 691 -207 687 -210 ct 683 -214 678 -217 673 -218 ct 
667 -220 661 -221 655 -221 ct 648 -221 643 -220 637 -218 ct 632 -217 627 -214 623 -211 ct 
618 -207 615 -203 612 -198 ct 609 -193 608 -187 607 -180 ct 575 -183 l  576 -192 579 -200 582 -208 ct 
586 -215 591 -222 598 -228 ct 605 -234 613 -238 622 -242 ct 631 -245 642 -247 655 -247 ct 
667 -247 677 -245 687 -242 ct 696 -239 704 -235 711 -229 ct 717 -224 722 -217 726 -209 ct 
729 -200 731 -191 731 -180 ct 731 -172 729 -164 726 -157 ct 723 -149 720 -142 715 -136 ct 
710 -129 704 -123 698 -116 ct 691 -110 685 -104 678 -98 ct 671 -92 663 -86 656 -81 ct 
649 -75 643 -69 636 -63 ct 630 -57 624 -51 619 -45 ct 614 -39 611 -33 608 -26 ct 
735 -26 l  735 0 l  574 0 l  p ef
pom
pum
15548 7168 t
27 0 m  27 -26 l  89 -26 l  89 -213 l  34 -174 l  34 -204 l  91 -243 l 
120 -243 l  120 -26 l  179 -26 l  179 0 l  27 0 l  p ef
366 -68 m  366 -57 364 -47 360 -38 ct 357 -29 351 -22 345 -16 ct 338 -10 329 -5 319 -2 ct 
308 1 297 3 283 3 ct 268 3 256 1 245 -3 ct 235 -6 227 -11 220 -17 ct 213 -24 208 -31 205 -39 ct 
202 -46 199 -55 198 -63 ct 231 -66 l  231 -60 233 -54 236 -48 ct 238 -43 241 -38 246 -35 ct 
250 -31 255 -28 261 -26 ct 268 -24 275 -23 283 -23 ct 299 -23 311 -27 320 -34 ct 
329 -42 334 -54 334 -69 ct 334 -78 332 -85 328 -90 ct 324 -96 319 -100 313 -103 ct 
307 -106 300 -108 294 -109 ct 287 -110 280 -111 274 -111 ct 257 -111 l  257 -138 l 
274 -138 l  279 -138 286 -139 292 -140 ct 298 -141 304 -143 309 -146 ct 314 -149 319 -154 322 -159 ct 
326 -164 327 -171 327 -180 ct 327 -193 323 -203 316 -210 ct 308 -218 297 -221 282 -221 ct 
268 -221 257 -218 249 -211 ct 240 -204 235 -194 234 -182 ct 203 -184 l  204 -195 207 -204 211 -212 ct 
216 -220 222 -226 229 -231 ct 236 -237 244 -241 253 -243 ct 262 -246 272 -247 282 -247 ct 
296 -247 307 -245 317 -242 ct 327 -239 335 -234 341 -228 ct 347 -222 352 -216 355 -208 ct 
358 -200 359 -192 359 -183 ct 359 -176 358 -169 356 -163 ct 354 -157 351 -151 347 -146 ct 
343 -141 338 -137 331 -134 ct 325 -130 317 -127 308 -125 ct 308 -125 l  318 -124 327 -122 334 -118 ct 
341 -115 347 -111 352 -105 ct 356 -100 360 -95 362 -88 ct 365 -82 366 -75 366 -68 ct 
p ef
550 -127 m  550 -105 548 -86 543 -70 ct 539 -54 534 -40 526 -29 ct 518 -19 509 -11 498 -5 ct 
487 0 475 3 462 3 ct 452 3 444 2 437 0 ct 429 -2 422 -5 417 -9 ct 411 -13 406 -18 402 -24 ct 
397 -31 394 -39 392 -48 ct 421 -52 l  424 -42 429 -34 436 -29 ct 443 -24 452 -22 462 -22 ct 
471 -22 478 -24 485 -28 ct 492 -32 498 -38 503 -46 ct 508 -54 512 -64 514 -76 ct 
517 -88 519 -102 519 -118 ct 517 -112 513 -108 509 -103 ct 505 -99 500 -95 495 -93 ct 
489 -90 484 -87 477 -86 ct 471 -84 465 -84 459 -84 ct 448 -84 438 -86 429 -89 ct 
420 -93 412 -99 406 -106 ct 400 -113 395 -122 392 -132 ct 388 -142 387 -153 387 -165 ct 
387 -178 388 -189 392 -199 ct 396 -209 401 -218 408 -225 ct 415 -232 423 -238 433 -241 ct 
443 -245 455 -247 467 -247 ct 494 -247 515 -237 529 -217 ct 543 -197 550 -167 550 -127 ct 
p
516 -157 m  516 -166 515 -174 513 -182 ct 511 -190 507 -197 503 -203 ct 499 -209 494 -213 488 -217 ct 
482 -220 474 -222 466 -222 ct 459 -222 452 -221 446 -218 ct 440 -215 435 -211 431 -207 ct 
427 -202 424 -196 421 -189 ct 419 -182 418 -174 418 -165 ct 418 -157 419 -150 421 -143 ct 
423 -136 426 -130 430 -124 ct 434 -119 439 -115 445 -112 ct 451 -109 458 -108 466 -108 ct 
472 -108 478 -109 484 -111 ct 489 -113 495 -116 500 -120 ct 504 -124 508 -129 511 -135 ct 
514 -141 516 -149 516 -157 ct p ef
739 -122 m  739 -99 736 -79 732 -63 ct 727 -47 721 -34 714 -25 ct 706 -15 697 -8 687 -3 ct 
676 1 665 3 654 3 ct 642 3 631 1 621 -3 ct 610 -8 602 -15 594 -24 ct 586 -34 581 -47 576 -63 ct 
572 -79 570 -99 570 -122 ct 570 -146 572 -167 576 -183 ct 581 -199 587 -212 594 -221 ct 
602 -231 611 -237 621 -241 ct 631 -245 643 -247 655 -247 ct 666 -247 677 -245 687 -241 ct 
698 -237 706 -231 714 -221 ct 722 -212 728 -199 732 -183 ct 736 -167 739 -146 739 -122 ct 
p
707 -122 m  707 -141 706 -157 704 -170 ct 701 -183 698 -193 693 -201 ct 689 -209 683 -214 677 -217 ct 
670 -220 663 -222 655 -222 ct 646 -222 638 -220 632 -217 ct 625 -214 619 -208 615 -201 ct 
610 -193 607 -183 605 -170 ct 602 -157 601 -141 601 -122 ct 601 -103 602 -88 605 -75 ct 
607 -62 610 -52 615 -44 ct 620 -36 625 -31 632 -27 ct 638 -24 646 -22 654 -22 ct 
662 -22 670 -24 676 -27 ct 683 -31 688 -36 693 -44 ct 697 -52 701 -62 703 -75 ct 
706 -88 707 -103 707 -122 ct p ef
922 -80 m  922 -68 920 -57 917 -47 ct 913 -36 908 -28 902 -20 ct 895 -13 887 -7 877 -3 ct 
867 1 856 3 843 3 ct 829 3 817 0 806 -5 ct 796 -11 787 -18 780 -28 ct 773 -39 768 -51 764 -66 ct 
761 -81 759 -97 759 -116 ct 759 -138 761 -157 765 -173 ct 769 -190 775 -203 782 -214 ct 
789 -225 799 -233 809 -239 ct 820 -244 832 -247 846 -247 ct 854 -247 862 -246 869 -244 ct 
876 -243 883 -240 889 -236 ct 895 -232 900 -227 904 -221 ct 909 -215 912 -207 915 -198 ct 
885 -192 l  882 -203 877 -210 870 -215 ct 863 -220 855 -222 845 -222 ct 837 -222 829 -220 822 -216 ct 
815 -212 810 -206 805 -198 ct 800 -190 796 -180 794 -168 ct 791 -156 790 -142 790 -126 ct 
795 -136 803 -144 814 -150 ct 824 -155 836 -158 849 -158 ct 860 -158 870 -156 879 -153 ct 
888 -149 895 -144 902 -137 ct 908 -130 913 -122 917 -113 ct 920 -103 922 -92 922 -80 ct 
p
890 -79 m  890 -87 889 -95 887 -102 ct 885 -108 882 -114 878 -119 ct 874 -124 869 -128 863 -130 ct 
856 -133 849 -134 841 -134 ct 836 -134 830 -133 824 -131 ct 819 -130 813 -127 809 -123 ct 
804 -120 800 -115 797 -109 ct 794 -102 793 -95 793 -86 ct 793 -77 794 -69 796 -61 ct 
799 -53 802 -46 806 -41 ct 811 -35 816 -30 822 -27 ct 828 -24 835 -22 842 -22 ct 
850 -22 857 -23 862 -26 ct 868 -29 873 -32 878 -37 ct 882 -42 885 -48 887 -55 ct 
889 -62 890 -70 890 -79 ct p ef
pom
pum
17727 4019 t
181 -68 m  181 -57 179 -47 175 -38 ct 172 -29 166 -22 160 -16 ct 153 -10 144 -5 134 -2 ct 
123 1 112 3 98 3 ct 83 3 71 1 60 -3 ct 50 -6 42 -11 35 -17 ct 28 -24 23 -31 20 -39 ct 
17 -46 14 -55 13 -63 ct 46 -66 l  46 -60 48 -54 51 -48 ct 53 -43 56 -38 61 -35 ct 
65 -31 70 -28 76 -26 ct 83 -24 90 -23 98 -23 ct 114 -23 126 -27 135 -34 ct 144 -42 149 -54 149 -69 ct 
149 -78 147 -85 143 -90 ct 139 -96 134 -100 128 -103 ct 122 -106 115 -108 109 -109 ct 
102 -110 95 -111 89 -111 ct 72 -111 l  72 -138 l  89 -138 l  94 -138 101 -139 107 -140 ct 
113 -141 119 -143 124 -146 ct 129 -149 134 -154 137 -159 ct 141 -164 142 -171 142 -180 ct 
142 -193 138 -203 131 -210 ct 123 -218 112 -221 97 -221 ct 83 -221 72 -218 64 -211 ct 
55 -204 50 -194 49 -182 ct 18 -184 l  19 -195 22 -204 26 -212 ct 31 -220 37 -226 44 -231 ct 
51 -237 59 -241 68 -243 ct 77 -246 87 -247 97 -247 ct 111 -247 122 -245 132 -242 ct 
142 -239 150 -234 156 -228 ct 162 -222 167 -216 170 -208 ct 173 -200 174 -192 174 -183 ct 
174 -176 173 -169 171 -163 ct 169 -157 166 -151 162 -146 ct 158 -141 153 -137 146 -134 ct 
140 -130 132 -127 123 -125 ct 123 -125 l  133 -124 142 -122 149 -118 ct 156 -115 162 -111 167 -105 ct 
171 -100 175 -95 177 -88 ct 180 -82 181 -75 181 -68 ct p ef
366 -80 m  366 -68 364 -57 361 -47 ct 357 -36 352 -28 346 -20 ct 339 -13 331 -7 321 -3 ct 
311 1 300 3 287 3 ct 273 3 261 0 250 -5 ct 240 -11 231 -18 224 -28 ct 217 -39 212 -51 208 -66 ct 
205 -81 203 -97 203 -116 ct 203 -138 205 -157 209 -173 ct 213 -190 219 -203 226 -214 ct 
233 -225 243 -233 253 -239 ct 264 -244 276 -247 290 -247 ct 298 -247 306 -246 313 -244 ct 
320 -243 327 -240 333 -236 ct 339 -232 344 -227 348 -221 ct 353 -215 356 -207 359 -198 ct 
329 -192 l  326 -203 321 -210 314 -215 ct 307 -220 299 -222 289 -222 ct 281 -222 273 -220 266 -216 ct 
259 -212 254 -206 249 -198 ct 244 -190 240 -180 238 -168 ct 235 -156 234 -142 234 -126 ct 
239 -136 247 -144 258 -150 ct 268 -155 280 -158 293 -158 ct 304 -158 314 -156 323 -153 ct 
332 -149 339 -144 346 -137 ct 352 -130 357 -122 361 -113 ct 364 -103 366 -92 366 -80 ct 
p
334 -79 m  334 -87 333 -95 331 -102 ct 329 -108 326 -114 322 -119 ct 318 -124 313 -128 307 -130 ct 
300 -133 293 -134 285 -134 ct 280 -134 274 -133 268 -131 ct 263 -130 257 -127 253 -123 ct 
248 -120 244 -115 241 -109 ct 238 -102 237 -95 237 -86 ct 237 -77 238 -69 240 -61 ct 
243 -53 246 -46 250 -41 ct 255 -35 260 -30 266 -27 ct 272 -24 279 -22 286 -22 ct 
294 -22 301 -23 306 -26 ct 312 -29 317 -32 322 -37 ct 326 -42 329 -48 331 -55 ct 
333 -62 334 -70 334 -79 ct p ef
552 -80 m  552 -67 550 -56 546 -46 ct 542 -36 537 -27 530 -20 ct 522 -13 513 -7 503 -3 ct 
492 1 479 3 465 3 ct 453 3 441 1 432 -1 ct 422 -4 414 -9 408 -14 ct 401 -19 396 -25 392 -32 ct 
388 -39 386 -47 384 -55 ct 416 -58 l  417 -54 419 -49 421 -45 ct 423 -41 426 -37 430 -33 ct 
434 -30 439 -27 445 -25 ct 451 -23 458 -22 466 -22 ct 474 -22 481 -24 488 -26 ct 
494 -29 500 -32 505 -37 ct 509 -42 513 -48 515 -55 ct 518 -62 519 -70 519 -79 ct 
519 -86 518 -93 516 -99 ct 513 -106 510 -111 505 -116 ct 501 -120 495 -124 489 -126 ct 
482 -129 475 -130 467 -130 ct 462 -130 457 -130 452 -129 ct 448 -128 444 -126 440 -125 ct 
437 -123 433 -121 430 -119 ct 427 -117 424 -115 422 -113 ct 391 -113 l  399 -243 l 
537 -243 l  537 -217 l  428 -217 l  423 -140 l  428 -144 435 -148 444 -151 ct 
452 -154 462 -155 473 -155 ct 485 -155 496 -154 506 -150 ct 515 -146 524 -141 530 -134 ct 
537 -128 542 -120 546 -110 ct 550 -101 552 -91 552 -80 ct p ef
736 -127 m  736 -105 734 -86 729 -70 ct 725 -54 720 -40 712 -29 ct 704 -19 695 -11 684 -5 ct 
673 0 661 3 648 3 ct 638 3 630 2 623 0 ct 615 -2 608 -5 603 -9 ct 597 -13 592 -18 588 -24 ct 
583 -31 580 -39 578 -48 ct 607 -52 l  610 -42 615 -34 622 -29 ct 629 -24 638 -22 648 -22 ct 
657 -22 664 -24 671 -28 ct 678 -32 684 -38 689 -46 ct 694 -54 698 -64 700 -76 ct 
703 -88 705 -102 705 -118 ct 703 -112 699 -108 695 -103 ct 691 -99 686 -95 681 -93 ct 
675 -90 670 -87 663 -86 ct 657 -84 651 -84 645 -84 ct 634 -84 624 -86 615 -89 ct 
606 -93 598 -99 592 -106 ct 586 -113 581 -122 578 -132 ct 574 -142 573 -153 573 -165 ct 
573 -178 574 -189 578 -199 ct 582 -209 587 -218 594 -225 ct 601 -232 609 -238 619 -241 ct 
629 -245 641 -247 653 -247 ct 680 -247 701 -237 715 -217 ct 729 -197 736 -167 736 -127 ct 
p
702 -157 m  702 -166 701 -174 699 -182 ct 697 -190 693 -197 689 -203 ct 685 -209 680 -213 674 -217 ct 
668 -220 660 -222 652 -222 ct 645 -222 638 -221 632 -218 ct 626 -215 621 -211 617 -207 ct 
613 -202 610 -196 607 -189 ct 605 -182 604 -174 604 -165 ct 604 -157 605 -150 607 -143 ct 
609 -136 612 -130 616 -124 ct 620 -119 625 -115 631 -112 ct 637 -109 644 -108 652 -108 ct 
658 -108 664 -109 670 -111 ct 675 -113 681 -116 686 -120 ct 690 -124 694 -129 697 -135 ct 
700 -141 702 -149 702 -157 ct p ef
759 0 m  759 -22 l  765 -35 772 -47 780 -58 ct 789 -68 798 -77 807 -85 ct 816 -94 825 -101 835 -109 ct 
844 -116 852 -123 859 -130 ct 867 -137 873 -145 877 -152 ct 882 -160 884 -169 884 -179 ct 
884 -186 883 -192 881 -197 ct 879 -202 876 -207 872 -210 ct 868 -214 863 -217 858 -218 ct 
852 -220 846 -221 840 -221 ct 833 -221 828 -220 822 -218 ct 817 -217 812 -214 808 -211 ct 
803 -207 800 -203 797 -198 ct 794 -193 793 -187 792 -180 ct 760 -183 l  761 -192 764 -200 767 -208 ct 
771 -215 776 -222 783 -228 ct 790 -234 798 -238 807 -242 ct 816 -245 827 -247 840 -247 ct 
852 -247 862 -245 872 -242 ct 881 -239 889 -235 896 -229 ct 902 -224 907 -217 911 -209 ct 
914 -200 916 -191 916 -180 ct 916 -172 914 -164 911 -157 ct 908 -149 905 -142 900 -136 ct 
895 -129 889 -123 883 -116 ct 876 -110 870 -104 863 -98 ct 856 -92 848 -86 841 -81 ct 
834 -75 828 -69 821 -63 ct 815 -57 809 -51 804 -45 ct 799 -39 796 -33 793 -26 ct 
920 -26 l  920 0 l  759 0 l  p ef
pom
pum
19999 8904 t
27 0 m  27 -26 l  89 -26 l  89 -213 l  34 -174 l  34 -204 l  91 -243 l 
120 -243 l  120 -26 l  179 -26 l  179 0 l  27 0 l  p ef
366 -68 m  366 -57 364 -47 360 -38 ct 357 -29 351 -22 345 -16 ct 338 -10 329 -5 319 -2 ct 
308 1 297 3 283 3 ct 268 3 256 1 245 -3 ct 235 -6 227 -11 220 -17 ct 213 -24 208 -31 205 -39 ct 
202 -46 199 -55 198 -63 ct 231 -66 l  231 -60 233 -54 236 -48 ct 238 -43 241 -38 246 -35 ct 
250 -31 255 -28 261 -26 ct 268 -24 275 -23 283 -23 ct 299 -23 311 -27 320 -34 ct 
329 -42 334 -54 334 -69 ct 334 -78 332 -85 328 -90 ct 324 -96 319 -100 313 -103 ct 
307 -106 300 -108 294 -109 ct 287 -110 280 -111 274 -111 ct 257 -111 l  257 -138 l 
274 -138 l  279 -138 286 -139 292 -140 ct 298 -141 304 -143 309 -146 ct 314 -149 319 -154 322 -159 ct 
326 -164 327 -171 327 -180 ct 327 -193 323 -203 316 -210 ct 308 -218 297 -221 282 -221 ct 
268 -221 257 -218 249 -211 ct 240 -204 235 -194 234 -182 ct 203 -184 l  204 -195 207 -204 211 -212 ct 
216 -220 222 -226 229 -231 ct 236 -237 244 -241 253 -243 ct 262 -246 272 -247 282 -247 ct 
296 -247 307 -245 317 -242 ct 327 -239 335 -234 341 -228 ct 347 -222 352 -216 355 -208 ct 
358 -200 359 -192 359 -183 ct 359 -176 358 -169 356 -163 ct 354 -157 351 -151 347 -146 ct 
343 -141 338 -137 331 -134 ct 325 -130 317 -127 308 -125 ct 308 -125 l  318 -124 327 -122 334 -118 ct 
341 -115 347 -111 352 -105 ct 356 -100 360 -95 362 -88 ct 365 -82 366 -75 366 -68 ct 
p ef
550 -127 m  550 -105 548 -86 543 -70 ct 539 -54 534 -40 526 -29 ct 518 -19 509 -11 498 -5 ct 
487 0 475 3 462 3 ct 452 3 444 2 437 0 ct 429 -2 422 -5 417 -9 ct 411 -13 406 -18 402 -24 ct 
397 -31 394 -39 392 -48 ct 421 -52 l  424 -42 429 -34 436 -29 ct 443 -24 452 -22 462 -22 ct 
471 -22 478 -24 485 -28 ct 492 -32 498 -38 503 -46 ct 508 -54 512 -64 514 -76 ct 
517 -88 519 -102 519 -118 ct 517 -112 513 -108 509 -103 ct 505 -99 500 -95 495 -93 ct 
489 -90 484 -87 477 -86 ct 471 -84 465 -84 459 -84 ct 448 -84 438 -86 429 -89 ct 
420 -93 412 -99 406 -106 ct 400 -113 395 -122 392 -132 ct 388 -142 387 -153 387 -165 ct 
387 -178 388 -189 392 -199 ct 396 -209 401 -218 408 -225 ct 415 -232 423 -238 433 -241 ct 
443 -245 455 -247 467 -247 ct 494 -247 515 -237 529 -217 ct 543 -197 550 -167 550 -127 ct 
p
516 -157 m  516 -166 515 -174 513 -182 ct 511 -190 507 -197 503 -203 ct 499 -209 494 -213 488 -217 ct 
482 -220 474 -222 466 -222 ct 459 -222 452 -221 446 -218 ct 440 -215 435 -211 431 -207 ct 
427 -202 424 -196 421 -189 ct 419 -182 418 -174 418 -165 ct 418 -157 419 -150 421 -143 ct 
423 -136 426 -130 430 -124 ct 434 -119 439 -115 445 -112 ct 451 -109 458 -108 466 -108 ct 
472 -108 478 -109 484 -111 ct 489 -113 495 -116 500 -120 ct 504 -124 508 -129 511 -135 ct 
514 -141 516 -149 516 -157 ct p ef
739 -122 m  739 -99 736 -79 732 -63 ct 727 -47 721 -34 714 -25 ct 706 -15 697 -8 687 -3 ct 
676 1 665 3 654 3 ct 642 3 631 1 621 -3 ct 610 -8 602 -15 594 -24 ct 586 -34 581 -47 576 -63 ct 
572 -79 570 -99 570 -122 ct 570 -146 572 -167 576 -183 ct 581 -199 587 -212 594 -221 ct 
602 -231 611 -237 621 -241 ct 631 -245 643 -247 655 -247 ct 666 -247 677 -245 687 -241 ct 
698 -237 706 -231 714 -221 ct 722 -212 728 -199 732 -183 ct 736 -167 739 -146 739 -122 ct 
p
707 -122 m  707 -141 706 -157 704 -170 ct 701 -183 698 -193 693 -201 ct 689 -209 683 -214 677 -217 ct 
670 -220 663 -222 655 -222 ct 646 -222 638 -220 632 -217 ct 625 -214 619 -208 615 -201 ct 
610 -193 607 -183 605 -170 ct 602 -157 601 -141 601 -122 ct 601 -103 602 -88 605 -75 ct 
607 -62 610 -52 615 -44 ct 620 -36 625 -31 632 -27 ct 638 -24 646 -22 654 -22 ct 
662 -22 670 -24 676 -27 ct 683 -31 688 -36 693 -44 ct 697 -52 701 -62 703 -75 ct 
706 -88 707 -103 707 -122 ct p ef
pom
pum
13637 10775 t
50 0 m  50 -367 l  180 -367 l  216 -367 246 -359 271 -342 ct 297 -325 317 -302 331 -273 ct 
345 -244 352 -213 352 -181 ct 352 -132 338 -91 309 -58 ct 280 -25 246 -6 207 -1 ct 
201 0 193 0 181 0 ct 50 0 l  p
96 -30 m  172 -30 l  216 -30 250 -46 275 -78 ct 296 -105 306 -139 306 -180 ct 
306 -225 295 -262 271 -292 ct 248 -322 215 -337 172 -337 ct 96 -337 l  96 -30 l 
p ef
386 -117 m  386 -152 397 -183 420 -207 ct 443 -232 470 -244 502 -244 ct 535 -244 563 -231 585 -205 ct 
607 -180 618 -150 618 -116 ct 618 -81 606 -52 583 -29 ct 560 -6 533 6 502 6 ct 
471 6 444 -6 421 -29 ct 397 -53 386 -82 386 -117 ct p
427 -122 m  427 -91 435 -68 450 -52 ct 465 -36 482 -28 502 -28 ct 521 -28 539 -36 554 -52 ct 
569 -68 576 -91 576 -122 ct 576 -152 569 -174 554 -189 ct 539 -204 521 -211 502 -211 ct 
482 -211 465 -204 450 -189 ct 435 -174 427 -152 427 -122 ct p ef
679 0 m  679 -382 l  717 -382 l  717 -125 l  825 -236 l  873 -236 l  784 -145 l 
884 0 l  841 0 l  758 -119 l  716 -75 l  716 0 l  679 0 l  p ef
942 -64 m  942 -236 l  984 -236 l  984 -58 l  984 -46 987 -37 992 -32 ct 
998 -26 1009 -24 1026 -24 ct 1044 -24 1059 -29 1070 -38 ct 1081 -48 1087 -59 1089 -72 ct 
1089 -75 1089 -81 1089 -87 ct 1089 -236 l  1131 -236 l  1131 0 l  1090 0 l 
1090 -25 l  1066 -4 1036 6 998 6 ct 987 6 978 4 971 1 ct 963 -2 958 -6 954 -10 ct 
951 -15 948 -21 946 -28 ct 944 -36 943 -42 943 -46 ct 942 -51 942 -57 942 -64 ct 
p ef
1206 0 m  1206 -238 l  1245 -238 l  1245 -201 l  1265 -228 1291 -241 1322 -241 ct 
1356 -241 1379 -227 1389 -198 ct 1411 -227 1438 -241 1469 -241 ct 1483 -241 1494 -239 1504 -234 ct 
1514 -230 1521 -225 1526 -219 ct 1530 -213 1534 -206 1537 -197 ct 1539 -187 1541 -180 1541 -174 ct 
1542 -168 1542 -161 1542 -153 ct 1542 0 l  1500 0 l  1500 -149 l  1500 -150 1500 -151 1500 -152 ct 
1500 -153 1500 -156 1499 -161 ct 1498 -165 1497 -169 1496 -172 ct 1495 -176 1493 -180 1490 -185 ct 
1488 -189 1485 -193 1481 -197 ct 1478 -200 1473 -203 1468 -205 ct 1462 -208 1456 -209 1449 -209 ct 
1430 -209 1416 -201 1408 -185 ct 1399 -169 1395 -150 1395 -127 ct 1395 0 l  1353 0 l 
1353 -149 l  1353 -155 1353 -160 1353 -163 ct 1353 -167 1352 -172 1350 -178 ct 
1348 -185 1345 -190 1342 -194 ct 1339 -198 1334 -201 1327 -204 ct 1320 -207 1311 -209 1302 -209 ct 
1283 -209 1269 -201 1261 -185 ct 1252 -169 1248 -150 1248 -127 ct 1248 0 l  1206 0 l 
p ef
1606 -119 m  1606 -154 1617 -184 1638 -208 ct 1659 -232 1684 -244 1713 -244 ct 
1723 -244 1733 -242 1743 -239 ct 1753 -235 1762 -230 1772 -222 ct 1782 -214 1790 -203 1796 -187 ct 
1802 -172 1806 -153 1807 -131 ct 1807 -116 l  1643 -116 l  1644 -90 1652 -68 1667 -52 ct 
1683 -35 1701 -27 1721 -27 ct 1748 -27 1775 -37 1802 -56 ct 1805 -21 l  1778 -3 1750 6 1721 6 ct 
1688 6 1660 -6 1639 -31 ct 1617 -56 1606 -86 1606 -119 ct p
1646 -145 m  1777 -145 l  1775 -159 1771 -171 1765 -180 ct 1760 -190 1754 -197 1747 -201 ct 
1740 -205 1734 -207 1728 -209 ct 1723 -210 1718 -211 1713 -211 ct 1695 -211 1680 -204 1668 -190 ct 
1657 -176 1649 -161 1646 -145 ct p ef
1868 0 m  1868 -238 l  1907 -238 l  1907 -201 l  1927 -228 1953 -241 1984 -241 ct 
1997 -241 2008 -239 2018 -235 ct 2027 -231 2034 -227 2039 -221 ct 2044 -215 2048 -208 2051 -199 ct 
2053 -191 2055 -183 2056 -176 ct 2056 -170 2057 -162 2057 -153 ct 2057 0 l  2015 0 l 
2015 -149 l  2015 -155 2015 -160 2015 -163 ct 2015 -167 2014 -172 2012 -178 ct 
2010 -185 2007 -190 2004 -194 ct 2001 -198 1996 -201 1989 -204 ct 1982 -207 1973 -209 1964 -209 ct 
1945 -209 1931 -201 1923 -185 ct 1914 -169 1910 -150 1910 -127 ct 1910 0 l  1868 0 l 
p ef
2100 -204 m  2100 -235 l  2145 -235 l  2145 -302 l  2182 -302 l  2182 -235 l 
2257 -235 l  2257 -204 l  2182 -204 l  2182 -74 l  2182 -43 2192 -28 2211 -28 ct 
2225 -28 2241 -34 2257 -45 ct 2266 -14 l  2241 -1 2214 6 2187 6 ct 2158 6 2144 -17 2144 -62 ct 
2144 -204 l  2100 -204 l  p ef
2318 0 m  2318 -382 l  2358 -382 l  2358 0 l  2318 0 l  p ef
2568 -302 m  2568 -349 l  2616 -349 l  2616 -302 l  2568 -302 l  p
2465 -302 m  2465 -349 l  2513 -349 l  2513 -302 l  2465 -302 l  p
2431 -60 m  2431 -73 2436 -84 2446 -94 ct 2456 -103 2469 -111 2485 -115 ct 2501 -120 2517 -124 2532 -126 ct 
2547 -128 2563 -130 2578 -130 ct 2578 -148 l  2578 -170 2573 -186 2565 -196 ct 
2556 -207 2545 -212 2531 -212 ct 2504 -212 2478 -203 2452 -185 ct 2449 -220 l 
2475 -236 2503 -244 2532 -244 ct 2556 -244 2576 -236 2593 -220 ct 2609 -204 2618 -184 2620 -161 ct 
2620 0 l  2579 0 l  2579 -18 l  2578 -17 2575 -15 2570 -11 ct 2565 -8 2555 -5 2540 0 ct 
2525 4 2509 6 2492 6 ct 2471 6 2456 -1 2446 -15 ct 2436 -30 2431 -44 2431 -60 ct 
p
2470 -60 m  2470 -51 2475 -43 2484 -36 ct 2493 -30 2505 -27 2519 -27 ct 2534 -27 2548 -30 2560 -36 ct 
2572 -43 2578 -53 2578 -69 ct 2578 -102 l  2567 -102 2556 -101 2545 -100 ct 
2534 -98 2522 -96 2510 -94 ct 2498 -91 2488 -86 2481 -81 ct 2474 -75 2470 -68 2470 -60 ct 
p ef
2714 0 m  2714 -238 l  2753 -238 l  2753 -201 l  2773 -228 2799 -241 2830 -241 ct 
2843 -241 2854 -239 2864 -235 ct 2873 -231 2880 -227 2885 -221 ct 2890 -215 2894 -208 2897 -199 ct 
2899 -191 2901 -183 2902 -176 ct 2902 -170 2903 -162 2903 -153 ct 2903 0 l  2861 0 l 
2861 -149 l  2861 -155 2861 -160 2861 -163 ct 2861 -167 2860 -172 2858 -178 ct 
2856 -185 2853 -190 2850 -194 ct 2847 -198 2842 -201 2835 -204 ct 2828 -207 2819 -209 2810 -209 ct 
2791 -209 2777 -201 2769 -185 ct 2760 -169 2756 -150 2756 -127 ct 2756 0 l  2714 0 l 
p ef
2951 38 m  2951 15 2963 -4 2985 -17 ct 2976 -30 2972 -43 2972 -57 ct 2972 -73 2977 -88 2987 -102 ct 
2987 -102 l  2976 -117 2970 -135 2970 -155 ct 2970 -180 2978 -200 2995 -217 ct 
3012 -233 3031 -241 3054 -241 ct 3072 -241 3089 -235 3106 -223 ct 3105 -225 l 
3131 -235 3158 -241 3188 -241 ct 3194 -207 l  3183 -208 3173 -208 3162 -208 ct 
3161 -208 3148 -208 3123 -208 ct 3118 -211 l  3132 -193 3139 -174 3139 -155 ct 
3139 -132 3130 -112 3114 -94 ct 3098 -77 3078 -68 3054 -68 ct 3038 -68 3022 -74 3006 -84 ct 
3002 -76 3000 -70 3000 -65 ct 3000 -58 3002 -51 3006 -45 ct 3011 -40 3018 -37 3030 -37 ct 
3069 -37 l  3082 -37 3092 -36 3101 -35 ct 3109 -34 3120 -32 3133 -29 ct 3146 -26 3157 -21 3165 -13 ct 
3174 -5 3180 5 3184 17 ct 3185 24 3186 31 3186 37 ct 3186 57 3175 75 3152 88 ct 
3129 102 3101 109 3069 109 ct 3036 109 3008 102 2985 88 ct 2963 75 2951 58 2951 38 ct 
p
2988 38 m  2988 47 2993 55 3003 61 ct 3012 68 3023 72 3034 75 ct 3046 77 3057 79 3068 79 ct 
3090 79 3109 75 3125 68 ct 3141 60 3149 50 3149 38 ct 3149 14 3123 2 3070 2 ct 
3037 2 l  3022 2 l  3011 3 3003 7 2997 14 ct 2991 21 2988 29 2988 38 ct p
3007 -155 m  3007 -138 3011 -124 3020 -114 ct 3028 -104 3040 -99 3054 -99 ct 
3066 -99 3077 -103 3087 -112 ct 3097 -121 3102 -135 3102 -155 ct 3102 -172 3097 -186 3089 -196 ct 
3080 -206 3068 -211 3054 -211 ct 3042 -211 3031 -207 3021 -198 ct 3012 -189 3007 -175 3007 -155 ct 
p ef
3219 -119 m  3219 -154 3230 -184 3251 -208 ct 3272 -232 3297 -244 3326 -244 ct 
3336 -244 3346 -242 3356 -239 ct 3366 -235 3375 -230 3385 -222 ct 3395 -214 3403 -203 3409 -187 ct 
3415 -172 3419 -153 3420 -131 ct 3420 -116 l  3256 -116 l  3257 -90 3265 -68 3280 -52 ct 
3296 -35 3314 -27 3334 -27 ct 3361 -27 3388 -37 3415 -56 ct 3418 -21 l  3391 -3 3363 6 3334 6 ct 
3301 6 3273 -6 3252 -31 ct 3230 -56 3219 -86 3219 -119 ct p
3259 -145 m  3390 -145 l  3388 -159 3384 -171 3378 -180 ct 3373 -190 3367 -197 3360 -201 ct 
3353 -205 3347 -207 3341 -209 ct 3336 -210 3331 -211 3326 -211 ct 3308 -211 3293 -204 3281 -190 ct 
3270 -176 3262 -161 3259 -145 ct p ef
pom
pum
8680 8219 t
90.0 r 30 -79 m  30 -90 36 -95 49 -95 ct 136 -95 l  154 -170 l  48 -170 l  36 -170 30 -175 30 -185 ct 
30 -196 37 -202 51 -202 ct 162 -202 l  202 -361 l  202 -361 202 -362 203 -364 ct 
204 -366 204 -367 204 -369 ct 204 -370 205 -371 206 -373 ct 207 -375 208 -376 209 -378 ct 
210 -379 212 -380 213 -381 ct 215 -382 218 -382 220 -382 ct 224 -382 228 -381 231 -378 ct 
234 -375 236 -371 236 -367 ct 236 -364 235 -359 234 -355 ct 196 -202 l  279 -202 l 
318 -361 l  318 -364 l  319 -366 320 -367 320 -369 ct 320 -370 321 -371 322 -373 ct 
323 -375 324 -376 325 -378 ct 326 -379 327 -380 329 -381 ct 331 -382 333 -382 336 -382 ct 
340 -382 344 -380 347 -377 ct 350 -374 351 -370 352 -366 ct 352 -362 351 -358 350 -355 ct 
312 -202 l  384 -202 l  394 -202 400 -201 404 -199 ct 408 -195 411 -191 411 -186 ct 
411 -175 404 -170 391 -170 ct 304 -170 l  286 -95 l  392 -95 l  397 -95 401 -94 404 -92 ct 
407 -90 409 -87 409 -85 ct 410 -84 411 -82 411 -79 ct 411 -68 403 -63 389 -63 ct 
278 -63 l  238 97 l  238 98 l  237 100 237 101 237 102 ct 237 103 236 104 236 105 ct 
235 107 235 108 234 109 ct 234 110 233 111 232 112 ct 231 113 230 114 229 115 ct 
228 116 227 116 225 117 ct 224 117 222 117 220 118 ct 216 117 212 116 209 113 ct 
206 110 205 106 204 102 ct 204 99 205 95 206 90 ct 244 -63 l  161 -63 l  122 97 l 
121 98 l  121 100 121 101 120 102 ct 120 103 120 104 119 105 ct 119 107 118 108 118 109 ct 
117 110 116 111 116 112 ct 115 113 114 114 113 115 ct 112 116 110 116 109 117 ct 
107 117 105 117 104 118 ct 99 117 96 116 93 113 ct 90 110 88 106 88 102 ct 88 99 89 95 90 90 ct 
128 -63 l  56 -63 l  45 -63 39 -64 36 -66 ct 32 -69 30 -74 30 -79 ct p
170 -95 m  252 -95 l  270 -170 l  188 -170 l  170 -95 l  p ef
500 0 m  500 -367 l  630 -367 l  666 -367 696 -359 721 -342 ct 747 -325 767 -302 781 -273 ct 
795 -244 802 -213 802 -181 ct 802 -132 788 -91 759 -58 ct 730 -25 696 -6 657 -1 ct 
651 0 643 0 631 0 ct 500 0 l  p
546 -30 m  622 -30 l  666 -30 700 -46 725 -78 ct 746 -105 756 -139 756 -180 ct 
756 -225 745 -262 721 -292 ct 698 -322 665 -337 622 -337 ct 546 -337 l  546 -30 l 
p ef
836 -117 m  836 -152 847 -183 870 -207 ct 893 -232 920 -244 952 -244 ct 985 -244 1013 -231 1035 -205 ct 
1057 -180 1068 -150 1068 -116 ct 1068 -81 1056 -52 1033 -29 ct 1010 -6 983 6 952 6 ct 
921 6 894 -6 871 -29 ct 847 -53 836 -82 836 -117 ct p
877 -122 m  877 -91 885 -68 900 -52 ct 915 -36 932 -28 952 -28 ct 971 -28 989 -36 1004 -52 ct 
1019 -68 1026 -91 1026 -122 ct 1026 -152 1019 -174 1004 -189 ct 989 -204 971 -211 952 -211 ct 
932 -211 915 -204 900 -189 ct 885 -174 877 -152 877 -122 ct p ef
1129 0 m  1129 -382 l  1167 -382 l  1167 -125 l  1275 -236 l  1323 -236 l 
1234 -145 l  1334 0 l  1291 0 l  1208 -119 l  1166 -75 l  1166 0 l  1129 0 l 
p ef
1391 -64 m  1391 -236 l  1433 -236 l  1433 -58 l  1433 -46 1436 -37 1441 -32 ct 
1447 -26 1458 -24 1475 -24 ct 1493 -24 1508 -29 1519 -38 ct 1530 -48 1536 -59 1538 -72 ct 
1538 -75 1538 -81 1538 -87 ct 1538 -236 l  1580 -236 l  1580 0 l  1539 0 l 
1539 -25 l  1515 -4 1485 6 1447 6 ct 1436 6 1427 4 1420 1 ct 1412 -2 1407 -6 1403 -10 ct 
1400 -15 1397 -21 1395 -28 ct 1393 -36 1392 -42 1392 -46 ct 1391 -51 1391 -57 1391 -64 ct 
p ef
1656 0 m  1656 -238 l  1695 -238 l  1695 -201 l  1715 -228 1741 -241 1772 -241 ct 
1806 -241 1829 -227 1839 -198 ct 1861 -227 1888 -241 1919 -241 ct 1933 -241 1944 -239 1954 -234 ct 
1964 -230 1971 -225 1976 -219 ct 1980 -213 1984 -206 1987 -197 ct 1989 -187 1991 -180 1991 -174 ct 
1992 -168 1992 -161 1992 -153 ct 1992 0 l  1950 0 l  1950 -149 l  1950 -150 1950 -151 1950 -152 ct 
1950 -153 1950 -156 1949 -161 ct 1948 -165 1947 -169 1946 -172 ct 1945 -176 1943 -180 1940 -185 ct 
1938 -189 1935 -193 1931 -197 ct 1928 -200 1923 -203 1918 -205 ct 1912 -208 1906 -209 1899 -209 ct 
1880 -209 1866 -201 1858 -185 ct 1849 -169 1845 -150 1845 -127 ct 1845 0 l  1803 0 l 
1803 -149 l  1803 -155 1803 -160 1803 -163 ct 1803 -167 1802 -172 1800 -178 ct 
1798 -185 1795 -190 1792 -194 ct 1789 -198 1784 -201 1777 -204 ct 1770 -207 1761 -209 1752 -209 ct 
1733 -209 1719 -201 1711 -185 ct 1702 -169 1698 -150 1698 -127 ct 1698 0 l  1656 0 l 
p ef
2055 -119 m  2055 -154 2066 -184 2087 -208 ct 2108 -232 2133 -244 2162 -244 ct 
2172 -244 2182 -242 2192 -239 ct 2202 -235 2211 -230 2221 -222 ct 2231 -214 2239 -203 2245 -187 ct 
2251 -172 2255 -153 2256 -131 ct 2256 -116 l  2092 -116 l  2093 -90 2101 -68 2116 -52 ct 
2132 -35 2150 -27 2170 -27 ct 2197 -27 2224 -37 2251 -56 ct 2254 -21 l  2227 -3 2199 6 2170 6 ct 
2137 6 2109 -6 2088 -31 ct 2066 -56 2055 -86 2055 -119 ct p
2095 -145 m  2226 -145 l  2224 -159 2220 -171 2214 -180 ct 2209 -190 2203 -197 2196 -201 ct 
2189 -205 2183 -207 2177 -209 ct 2172 -210 2167 -211 2162 -211 ct 2144 -211 2129 -204 2117 -190 ct 
2106 -176 2098 -161 2095 -145 ct p ef
2317 0 m  2317 -238 l  2356 -238 l  2356 -201 l  2376 -228 2402 -241 2433 -241 ct 
2446 -241 2457 -239 2467 -235 ct 2476 -231 2483 -227 2488 -221 ct 2493 -215 2497 -208 2500 -199 ct 
2502 -191 2504 -183 2505 -176 ct 2505 -170 2506 -162 2506 -153 ct 2506 0 l  2464 0 l 
2464 -149 l  2464 -155 2464 -160 2464 -163 ct 2464 -167 2463 -172 2461 -178 ct 
2459 -185 2456 -190 2453 -194 ct 2450 -198 2445 -201 2438 -204 ct 2431 -207 2422 -209 2413 -209 ct 
2394 -209 2380 -201 2372 -185 ct 2363 -169 2359 -150 2359 -127 ct 2359 0 l  2317 0 l 
p ef
2550 -204 m  2550 -235 l  2595 -235 l  2595 -302 l  2632 -302 l  2632 -235 l 
2707 -235 l  2707 -204 l  2632 -204 l  2632 -74 l  2632 -43 2642 -28 2661 -28 ct 
2675 -28 2691 -34 2707 -45 ct 2716 -14 l  2691 -1 2664 6 2637 6 ct 2608 6 2594 -17 2594 -62 ct 
2594 -204 l  2550 -204 l  p ef
2743 -119 m  2743 -154 2754 -184 2775 -208 ct 2796 -232 2821 -244 2850 -244 ct 
2860 -244 2870 -242 2880 -239 ct 2890 -235 2899 -230 2909 -222 ct 2919 -214 2927 -203 2933 -187 ct 
2939 -172 2943 -153 2944 -131 ct 2944 -116 l  2780 -116 l  2781 -90 2789 -68 2804 -52 ct 
2820 -35 2838 -27 2858 -27 ct 2885 -27 2912 -37 2939 -56 ct 2942 -21 l  2915 -3 2887 6 2858 6 ct 
2825 6 2797 -6 2776 -31 ct 2754 -56 2743 -86 2743 -119 ct p
2783 -145 m  2914 -145 l  2912 -159 2908 -171 2902 -180 ct 2897 -190 2891 -197 2884 -201 ct 
2877 -205 2871 -207 2865 -209 ct 2860 -210 2855 -211 2850 -211 ct 2832 -211 2817 -204 2805 -190 ct 
2794 -176 2786 -161 2783 -145 ct p ef
pom
0 8149 t 
pom
count op_count sub {pop} repeat countdictstack dict_count sub {end} repeat b4_inc_state restore
%%PageTrailer
%%Trailer
%%EOF
